{
	"artifacts" : 
	[
		{
			"path" : "/Users/sv/android_projects/MIF/JEFF/rnnoise-hearing-example/app/build/intermediates/cxx/RelWithDebInfo/4f20nz1l/obj/armeabi-v7a/libaudio-engine.so"
		}
	],
	"backtrace" : 1,
	"backtraceGraph" : 
	{
		"commands" : 
		[
			"add_library",
			"target_link_libraries",
			"add_definitions",
			"include_directories"
		],
		"files" : 
		[
			"CMakeLists.txt"
		],
		"nodes" : 
		[
			{
				"file" : 0
			},
			{
				"command" : 0,
				"file" : 0,
				"line" : 15,
				"parent" : 0
			},
			{
				"command" : 1,
				"file" : 0,
				"line" : 90,
				"parent" : 0
			},
			{
				"command" : 2,
				"file" : 0,
				"line" : 8,
				"parent" : 0
			},
			{
				"command" : 3,
				"file" : 0,
				"line" : 106,
				"parent" : 0
			}
		]
	},
	"compileGroups" : 
	[
		{
			"compileCommandFragments" : 
			[
				{
					"fragment" : "-g -DANDROID -fdata-sections -ffunction-sections -funwind-tables -fstack-protector-strong -no-canonical-prefixes -D_FORTIFY_SOURCE=2 -march=armv7-a -mthumb -Wformat -Werror=format-security  -O2 -g -DNDEBUG -fPIC   -UHAVE_CONFIG_H"
				}
			],
			"defines" : 
			[
				{
					"backtrace" : 3,
					"define" : "EXPORT="
				},
				{
					"backtrace" : 3,
					"define" : "FIXED_POINT"
				},
				{
					"backtrace" : 3,
					"define" : "USE_ALLOCA"
				},
				{
					"backtrace" : 3,
					"define" : "USE_KISS_FFT"
				},
				{
					"define" : "audio_engine_EXPORTS"
				}
			],
			"includes" : 
			[
				{
					"backtrace" : 4,
					"path" : "/Users/sv/android_projects/MIF/JEFF/rnnoise-hearing-example/app/src/main/cpp/../../../../oboe/include"
				},
				{
					"backtrace" : 2,
					"path" : "/Users/sv/android_projects/MIF/JEFF/rnnoise-hearing-example/oboe/include"
				}
			],
			"language" : "C",
			"sourceIndexes" : 
			[
				0,
				1,
				2,
				3,
				4,
				5,
				6,
				7,
				8,
				9,
				10,
				11
			],
			"sysroot" : 
			{
				"path" : "/Users/sv/Library/Android/sdk/ndk/25.1.8937393/toolchains/llvm/prebuilt/darwin-x86_64/sysroot"
			}
		},
		{
			"compileCommandFragments" : 
			[
				{
					"fragment" : "-g -DANDROID -fdata-sections -ffunction-sections -funwind-tables -fstack-protector-strong -no-canonical-prefixes -D_FORTIFY_SOURCE=2 -march=armv7-a -mthumb -Wformat -Werror=format-security   -O2 -g -DNDEBUG -fPIC   -UHAVE_CONFIG_H"
				}
			],
			"defines" : 
			[
				{
					"backtrace" : 3,
					"define" : "EXPORT="
				},
				{
					"backtrace" : 3,
					"define" : "FIXED_POINT"
				},
				{
					"backtrace" : 3,
					"define" : "USE_ALLOCA"
				},
				{
					"backtrace" : 3,
					"define" : "USE_KISS_FFT"
				},
				{
					"define" : "audio_engine_EXPORTS"
				}
			],
			"includes" : 
			[
				{
					"backtrace" : 4,
					"path" : "/Users/sv/android_projects/MIF/JEFF/rnnoise-hearing-example/app/src/main/cpp/../../../../oboe/include"
				},
				{
					"backtrace" : 2,
					"path" : "/Users/sv/android_projects/MIF/JEFF/rnnoise-hearing-example/oboe/include"
				}
			],
			"language" : "CXX",
			"sourceIndexes" : 
			[
				12,
				13,
				14,
				15,
				16,
				17,
				18,
				19,
				20,
				21,
				22,
				23,
				24,
				25,
				26,
				27
			],
			"sysroot" : 
			{
				"path" : "/Users/sv/Library/Android/sdk/ndk/25.1.8937393/toolchains/llvm/prebuilt/darwin-x86_64/sysroot"
			}
		}
	],
	"dependencies" : 
	[
		{
			"backtrace" : 2,
			"id" : "oboe::@0db0cf03f2959f768628"
		}
	],
	"id" : "audio-engine::@6890427a1f51a3e7e1df",
	"link" : 
	{
		"commandFragments" : 
		[
			{
				"fragment" : "-static-libstdc++ -Wl,--build-id=sha1 -Wl,--no-rosegment -Wl,--fatal-warnings -Wl,--gc-sections -Wl,--no-undefined -Qunused-arguments",
				"role" : "flags"
			},
			{
				"backtrace" : 2,
				"fragment" : "oboe/liboboe.a",
				"role" : "libraries"
			},
			{
				"backtrace" : 2,
				"fragment" : "/Users/sv/Library/Android/sdk/ndk/25.1.8937393/toolchains/llvm/prebuilt/darwin-x86_64/sysroot/usr/lib/arm-linux-androideabi/23/liblog.so",
				"role" : "libraries"
			},
			{
				"fragment" : "-llog",
				"role" : "libraries"
			},
			{
				"fragment" : "-lOpenSLES",
				"role" : "libraries"
			},
			{
				"fragment" : "-latomic -lm",
				"role" : "libraries"
			}
		],
		"language" : "CXX",
		"sysroot" : 
		{
			"path" : "/Users/sv/Library/Android/sdk/ndk/25.1.8937393/toolchains/llvm/prebuilt/darwin-x86_64/sysroot"
		}
	},
	"name" : "audio-engine",
	"nameOnDisk" : "libaudio-engine.so",
	"paths" : 
	{
		"build" : ".",
		"source" : "."
	},
	"sourceGroups" : 
	[
		{
			"name" : "Source Files",
			"sourceIndexes" : 
			[
				0,
				1,
				2,
				3,
				4,
				5,
				6,
				7,
				8,
				9,
				10,
				11,
				12,
				13,
				14,
				15,
				16,
				17,
				18,
				19,
				20,
				21,
				22,
				23,
				24,
				25,
				26,
				27
			]
		}
	],
	"sources" : 
	[
		{
			"backtrace" : 1,
			"compileGroupIndex" : 0,
			"path" : "noise_suppression/libspeexdsp/buffer.c",
			"sourceGroupIndex" : 0
		},
		{
			"backtrace" : 1,
			"compileGroupIndex" : 0,
			"path" : "noise_suppression/libspeexdsp/fftwrap.c",
			"sourceGroupIndex" : 0
		},
		{
			"backtrace" : 1,
			"compileGroupIndex" : 0,
			"path" : "noise_suppression/libspeexdsp/filterbank.c",
			"sourceGroupIndex" : 0
		},
		{
			"backtrace" : 1,
			"compileGroupIndex" : 0,
			"path" : "noise_suppression/libspeexdsp/jitter.c",
			"sourceGroupIndex" : 0
		},
		{
			"backtrace" : 1,
			"compileGroupIndex" : 0,
			"path" : "noise_suppression/libspeexdsp/kiss_fft.c",
			"sourceGroupIndex" : 0
		},
		{
			"backtrace" : 1,
			"compileGroupIndex" : 0,
			"path" : "noise_suppression/libspeexdsp/kiss_fftr.c",
			"sourceGroupIndex" : 0
		},
		{
			"backtrace" : 1,
			"compileGroupIndex" : 0,
			"path" : "noise_suppression/libspeexdsp/mdf.c",
			"sourceGroupIndex" : 0
		},
		{
			"backtrace" : 1,
			"compileGroupIndex" : 0,
			"path" : "noise_suppression/libspeexdsp/preprocess.c",
			"sourceGroupIndex" : 0
		},
		{
			"backtrace" : 1,
			"compileGroupIndex" : 0,
			"path" : "noise_suppression/libspeexdsp/resample.c",
			"sourceGroupIndex" : 0
		},
		{
			"backtrace" : 1,
			"compileGroupIndex" : 0,
			"path" : "noise_suppression/libspeexdsp/scal.c",
			"sourceGroupIndex" : 0
		},
		{
			"backtrace" : 1,
			"compileGroupIndex" : 0,
			"path" : "noise_suppression/libspeexdsp/smallft.c",
			"sourceGroupIndex" : 0
		},
		{
			"backtrace" : 1,
			"compileGroupIndex" : 0,
			"path" : "noise_suppression/libspeexdsp/speex_process.c",
			"sourceGroupIndex" : 0
		},
		{
			"backtrace" : 1,
			"compileGroupIndex" : 1,
			"path" : "noise_suppression/NoiseSuppressor.cpp",
			"sourceGroupIndex" : 0
		},
		{
			"backtrace" : 1,
			"compileGroupIndex" : 1,
			"path" : "equalizer/iir/XYData.cpp",
			"sourceGroupIndex" : 0
		},
		{
			"backtrace" : 1,
			"compileGroupIndex" : 1,
			"path" : "equalizer/iir/IIRControls.cpp",
			"sourceGroupIndex" : 0
		},
		{
			"backtrace" : 1,
			"compileGroupIndex" : 1,
			"path" : "equalizer/iir/IIREqualizer.cpp",
			"sourceGroupIndex" : 0
		},
		{
			"backtrace" : 1,
			"compileGroupIndex" : 1,
			"path" : "equalizer/Equalizer.cpp",
			"sourceGroupIndex" : 0
		},
		{
			"backtrace" : 1,
			"compileGroupIndex" : 1,
			"path" : "analyzer/data/ObservableShortArray.cpp",
			"sourceGroupIndex" : 0
		},
		{
			"backtrace" : 1,
			"compileGroupIndex" : 1,
			"path" : "analyzer/filters/HammingWindow.cpp",
			"sourceGroupIndex" : 0
		},
		{
			"backtrace" : 1,
			"compileGroupIndex" : 1,
			"path" : "analyzer/filters/LowPassFilter.cpp",
			"sourceGroupIndex" : 0
		},
		{
			"backtrace" : 1,
			"compileGroupIndex" : 1,
			"path" : "analyzer/fft/FFT.cpp",
			"sourceGroupIndex" : 0
		},
		{
			"backtrace" : 1,
			"compileGroupIndex" : 1,
			"path" : "analyzer/Analyzer.cpp",
			"sourceGroupIndex" : 0
		},
		{
			"backtrace" : 1,
			"compileGroupIndex" : 1,
			"path" : "bandpass/mkfilter/complex.cpp",
			"sourceGroupIndex" : 0
		},
		{
			"backtrace" : 1,
			"compileGroupIndex" : 1,
			"path" : "bandpass/mkfilter/mkfilter.cpp",
			"sourceGroupIndex" : 0
		},
		{
			"backtrace" : 1,
			"compileGroupIndex" : 1,
			"path" : "bandpass/BandpassFilter.cpp",
			"sourceGroupIndex" : 0
		},
		{
			"backtrace" : 1,
			"compileGroupIndex" : 1,
			"path" : "FullDuplexStream.cpp",
			"sourceGroupIndex" : 0
		},
		{
			"backtrace" : 1,
			"compileGroupIndex" : 1,
			"path" : "LiveEffectEngine.cpp",
			"sourceGroupIndex" : 0
		},
		{
			"backtrace" : 1,
			"compileGroupIndex" : 1,
			"path" : "JniBridge.cpp",
			"sourceGroupIndex" : 0
		}
	],
	"type" : "SHARED_LIBRARY"
}
