{
	"archive" : {},
	"artifacts" : 
	[
		{
			"path" : "oboe/liboboe.a"
		}
	],
	"backtrace" : 1,
	"backtraceGraph" : 
	{
		"commands" : 
		[
			"add_library",
			"install",
			"target_compile_options",
			"add_definitions",
			"target_include_directories"
		],
		"files" : 
		[
			"/Users/sv/android_projects/MIF/JEFF/rnnoise-hearing-example/oboe/CMakeLists.txt",
			"CMakeLists.txt"
		],
		"nodes" : 
		[
			{
				"file" : 0
			},
			{
				"command" : 0,
				"file" : 0,
				"line" : 63,
				"parent" : 0
			},
			{
				"command" : 1,
				"file" : 0,
				"line" : 89,
				"parent" : 0
			},
			{
				"command" : 2,
				"file" : 0,
				"line" : 73,
				"parent" : 0
			},
			{
				"file" : 1
			},
			{
				"command" : 3,
				"file" : 1,
				"line" : 8,
				"parent" : 4
			},
			{
				"command" : 4,
				"file" : 0,
				"line" : 66,
				"parent" : 0
			}
		]
	},
	"compileGroups" : 
	[
		{
			"compileCommandFragments" : 
			[
				{
					"fragment" : "-g -DANDROID -fdata-sections -ffunction-sections -funwind-tables -fstack-protector-strong -no-canonical-prefixes -D_FORTIFY_SOURCE=2 -Wformat -Werror=format-security   -O2 -g -DNDEBUG -fPIC   -UHAVE_CONFIG_H"
				},
				{
					"backtrace" : 3,
					"fragment" : "-std=c++14"
				},
				{
					"backtrace" : 3,
					"fragment" : "-Wall"
				},
				{
					"backtrace" : 3,
					"fragment" : "-Wextra-semi"
				},
				{
					"backtrace" : 3,
					"fragment" : "-Wshadow"
				},
				{
					"backtrace" : 3,
					"fragment" : "-Wshadow-field"
				},
				{
					"backtrace" : 3,
					"fragment" : "-Ofast"
				}
			],
			"defines" : 
			[
				{
					"backtrace" : 5,
					"define" : "EXPORT="
				},
				{
					"backtrace" : 5,
					"define" : "FIXED_POINT"
				},
				{
					"backtrace" : 5,
					"define" : "USE_ALLOCA"
				},
				{
					"backtrace" : 5,
					"define" : "USE_KISS_FFT"
				}
			],
			"includes" : 
			[
				{
					"backtrace" : 6,
					"path" : "/Users/sv/android_projects/MIF/JEFF/rnnoise-hearing-example/oboe/src"
				},
				{
					"backtrace" : 6,
					"path" : "/Users/sv/android_projects/MIF/JEFF/rnnoise-hearing-example/oboe/include"
				}
			],
			"language" : "CXX",
			"sourceIndexes" : 
			[
				0,
				1,
				2,
				3,
				4,
				5,
				6,
				7,
				8,
				9,
				10,
				11,
				12,
				13,
				14,
				15,
				16,
				17,
				18,
				19,
				20,
				21,
				22,
				23,
				24,
				25,
				26,
				27,
				28,
				29,
				30,
				31,
				32,
				33,
				34,
				35,
				36,
				37,
				38,
				39,
				40,
				41,
				42,
				43,
				44,
				45,
				46,
				47,
				48,
				49,
				50
			],
			"sysroot" : 
			{
				"path" : "/Users/sv/Library/Android/sdk/ndk/25.1.8937393/toolchains/llvm/prebuilt/darwin-x86_64/sysroot"
			}
		}
	],
	"id" : "oboe::@0db0cf03f2959f768628",
	"install" : 
	{
		"destinations" : 
		[
			{
				"backtrace" : 2,
				"path" : "lib/arm64-v8a"
			}
		],
		"prefix" : 
		{
			"path" : "/usr/local"
		}
	},
	"name" : "oboe",
	"nameOnDisk" : "liboboe.a",
	"paths" : 
	{
		"build" : "oboe",
		"source" : "/Users/sv/android_projects/MIF/JEFF/rnnoise-hearing-example/oboe"
	},
	"sourceGroups" : 
	[
		{
			"name" : "Source Files",
			"sourceIndexes" : 
			[
				0,
				1,
				2,
				3,
				4,
				5,
				6,
				7,
				8,
				9,
				10,
				11,
				12,
				13,
				14,
				15,
				16,
				17,
				18,
				19,
				20,
				21,
				22,
				23,
				24,
				25,
				26,
				27,
				28,
				29,
				30,
				31,
				32,
				33,
				34,
				35,
				36,
				37,
				38,
				39,
				40,
				41,
				42,
				43,
				44,
				45,
				46,
				47,
				48,
				49,
				50
			]
		}
	],
	"sources" : 
	[
		{
			"backtrace" : 1,
			"compileGroupIndex" : 0,
			"path" : "/Users/sv/android_projects/MIF/JEFF/rnnoise-hearing-example/oboe/src/aaudio/AAudioLoader.cpp",
			"sourceGroupIndex" : 0
		},
		{
			"backtrace" : 1,
			"compileGroupIndex" : 0,
			"path" : "/Users/sv/android_projects/MIF/JEFF/rnnoise-hearing-example/oboe/src/aaudio/AudioStreamAAudio.cpp",
			"sourceGroupIndex" : 0
		},
		{
			"backtrace" : 1,
			"compileGroupIndex" : 0,
			"path" : "/Users/sv/android_projects/MIF/JEFF/rnnoise-hearing-example/oboe/src/common/AudioSourceCaller.cpp",
			"sourceGroupIndex" : 0
		},
		{
			"backtrace" : 1,
			"compileGroupIndex" : 0,
			"path" : "/Users/sv/android_projects/MIF/JEFF/rnnoise-hearing-example/oboe/src/common/AudioStream.cpp",
			"sourceGroupIndex" : 0
		},
		{
			"backtrace" : 1,
			"compileGroupIndex" : 0,
			"path" : "/Users/sv/android_projects/MIF/JEFF/rnnoise-hearing-example/oboe/src/common/AudioStreamBuilder.cpp",
			"sourceGroupIndex" : 0
		},
		{
			"backtrace" : 1,
			"compileGroupIndex" : 0,
			"path" : "/Users/sv/android_projects/MIF/JEFF/rnnoise-hearing-example/oboe/src/common/DataConversionFlowGraph.cpp",
			"sourceGroupIndex" : 0
		},
		{
			"backtrace" : 1,
			"compileGroupIndex" : 0,
			"path" : "/Users/sv/android_projects/MIF/JEFF/rnnoise-hearing-example/oboe/src/common/FilterAudioStream.cpp",
			"sourceGroupIndex" : 0
		},
		{
			"backtrace" : 1,
			"compileGroupIndex" : 0,
			"path" : "/Users/sv/android_projects/MIF/JEFF/rnnoise-hearing-example/oboe/src/common/FixedBlockAdapter.cpp",
			"sourceGroupIndex" : 0
		},
		{
			"backtrace" : 1,
			"compileGroupIndex" : 0,
			"path" : "/Users/sv/android_projects/MIF/JEFF/rnnoise-hearing-example/oboe/src/common/FixedBlockReader.cpp",
			"sourceGroupIndex" : 0
		},
		{
			"backtrace" : 1,
			"compileGroupIndex" : 0,
			"path" : "/Users/sv/android_projects/MIF/JEFF/rnnoise-hearing-example/oboe/src/common/FixedBlockWriter.cpp",
			"sourceGroupIndex" : 0
		},
		{
			"backtrace" : 1,
			"compileGroupIndex" : 0,
			"path" : "/Users/sv/android_projects/MIF/JEFF/rnnoise-hearing-example/oboe/src/common/LatencyTuner.cpp",
			"sourceGroupIndex" : 0
		},
		{
			"backtrace" : 1,
			"compileGroupIndex" : 0,
			"path" : "/Users/sv/android_projects/MIF/JEFF/rnnoise-hearing-example/oboe/src/common/SourceFloatCaller.cpp",
			"sourceGroupIndex" : 0
		},
		{
			"backtrace" : 1,
			"compileGroupIndex" : 0,
			"path" : "/Users/sv/android_projects/MIF/JEFF/rnnoise-hearing-example/oboe/src/common/SourceI16Caller.cpp",
			"sourceGroupIndex" : 0
		},
		{
			"backtrace" : 1,
			"compileGroupIndex" : 0,
			"path" : "/Users/sv/android_projects/MIF/JEFF/rnnoise-hearing-example/oboe/src/common/Utilities.cpp",
			"sourceGroupIndex" : 0
		},
		{
			"backtrace" : 1,
			"compileGroupIndex" : 0,
			"path" : "/Users/sv/android_projects/MIF/JEFF/rnnoise-hearing-example/oboe/src/common/QuirksManager.cpp",
			"sourceGroupIndex" : 0
		},
		{
			"backtrace" : 1,
			"compileGroupIndex" : 0,
			"path" : "/Users/sv/android_projects/MIF/JEFF/rnnoise-hearing-example/oboe/src/fifo/FifoBuffer.cpp",
			"sourceGroupIndex" : 0
		},
		{
			"backtrace" : 1,
			"compileGroupIndex" : 0,
			"path" : "/Users/sv/android_projects/MIF/JEFF/rnnoise-hearing-example/oboe/src/fifo/FifoController.cpp",
			"sourceGroupIndex" : 0
		},
		{
			"backtrace" : 1,
			"compileGroupIndex" : 0,
			"path" : "/Users/sv/android_projects/MIF/JEFF/rnnoise-hearing-example/oboe/src/fifo/FifoControllerBase.cpp",
			"sourceGroupIndex" : 0
		},
		{
			"backtrace" : 1,
			"compileGroupIndex" : 0,
			"path" : "/Users/sv/android_projects/MIF/JEFF/rnnoise-hearing-example/oboe/src/fifo/FifoControllerIndirect.cpp",
			"sourceGroupIndex" : 0
		},
		{
			"backtrace" : 1,
			"compileGroupIndex" : 0,
			"path" : "/Users/sv/android_projects/MIF/JEFF/rnnoise-hearing-example/oboe/src/flowgraph/FlowGraphNode.cpp",
			"sourceGroupIndex" : 0
		},
		{
			"backtrace" : 1,
			"compileGroupIndex" : 0,
			"path" : "/Users/sv/android_projects/MIF/JEFF/rnnoise-hearing-example/oboe/src/flowgraph/ChannelCountConverter.cpp",
			"sourceGroupIndex" : 0
		},
		{
			"backtrace" : 1,
			"compileGroupIndex" : 0,
			"path" : "/Users/sv/android_projects/MIF/JEFF/rnnoise-hearing-example/oboe/src/flowgraph/ClipToRange.cpp",
			"sourceGroupIndex" : 0
		},
		{
			"backtrace" : 1,
			"compileGroupIndex" : 0,
			"path" : "/Users/sv/android_projects/MIF/JEFF/rnnoise-hearing-example/oboe/src/flowgraph/ManyToMultiConverter.cpp",
			"sourceGroupIndex" : 0
		},
		{
			"backtrace" : 1,
			"compileGroupIndex" : 0,
			"path" : "/Users/sv/android_projects/MIF/JEFF/rnnoise-hearing-example/oboe/src/flowgraph/MonoToMultiConverter.cpp",
			"sourceGroupIndex" : 0
		},
		{
			"backtrace" : 1,
			"compileGroupIndex" : 0,
			"path" : "/Users/sv/android_projects/MIF/JEFF/rnnoise-hearing-example/oboe/src/flowgraph/MultiToMonoConverter.cpp",
			"sourceGroupIndex" : 0
		},
		{
			"backtrace" : 1,
			"compileGroupIndex" : 0,
			"path" : "/Users/sv/android_projects/MIF/JEFF/rnnoise-hearing-example/oboe/src/flowgraph/RampLinear.cpp",
			"sourceGroupIndex" : 0
		},
		{
			"backtrace" : 1,
			"compileGroupIndex" : 0,
			"path" : "/Users/sv/android_projects/MIF/JEFF/rnnoise-hearing-example/oboe/src/flowgraph/SampleRateConverter.cpp",
			"sourceGroupIndex" : 0
		},
		{
			"backtrace" : 1,
			"compileGroupIndex" : 0,
			"path" : "/Users/sv/android_projects/MIF/JEFF/rnnoise-hearing-example/oboe/src/flowgraph/SinkFloat.cpp",
			"sourceGroupIndex" : 0
		},
		{
			"backtrace" : 1,
			"compileGroupIndex" : 0,
			"path" : "/Users/sv/android_projects/MIF/JEFF/rnnoise-hearing-example/oboe/src/flowgraph/SinkI16.cpp",
			"sourceGroupIndex" : 0
		},
		{
			"backtrace" : 1,
			"compileGroupIndex" : 0,
			"path" : "/Users/sv/android_projects/MIF/JEFF/rnnoise-hearing-example/oboe/src/flowgraph/SinkI24.cpp",
			"sourceGroupIndex" : 0
		},
		{
			"backtrace" : 1,
			"compileGroupIndex" : 0,
			"path" : "/Users/sv/android_projects/MIF/JEFF/rnnoise-hearing-example/oboe/src/flowgraph/SourceFloat.cpp",
			"sourceGroupIndex" : 0
		},
		{
			"backtrace" : 1,
			"compileGroupIndex" : 0,
			"path" : "/Users/sv/android_projects/MIF/JEFF/rnnoise-hearing-example/oboe/src/flowgraph/SourceI16.cpp",
			"sourceGroupIndex" : 0
		},
		{
			"backtrace" : 1,
			"compileGroupIndex" : 0,
			"path" : "/Users/sv/android_projects/MIF/JEFF/rnnoise-hearing-example/oboe/src/flowgraph/SourceI24.cpp",
			"sourceGroupIndex" : 0
		},
		{
			"backtrace" : 1,
			"compileGroupIndex" : 0,
			"path" : "/Users/sv/android_projects/MIF/JEFF/rnnoise-hearing-example/oboe/src/flowgraph/resampler/IntegerRatio.cpp",
			"sourceGroupIndex" : 0
		},
		{
			"backtrace" : 1,
			"compileGroupIndex" : 0,
			"path" : "/Users/sv/android_projects/MIF/JEFF/rnnoise-hearing-example/oboe/src/flowgraph/resampler/LinearResampler.cpp",
			"sourceGroupIndex" : 0
		},
		{
			"backtrace" : 1,
			"compileGroupIndex" : 0,
			"path" : "/Users/sv/android_projects/MIF/JEFF/rnnoise-hearing-example/oboe/src/flowgraph/resampler/MultiChannelResampler.cpp",
			"sourceGroupIndex" : 0
		},
		{
			"backtrace" : 1,
			"compileGroupIndex" : 0,
			"path" : "/Users/sv/android_projects/MIF/JEFF/rnnoise-hearing-example/oboe/src/flowgraph/resampler/PolyphaseResampler.cpp",
			"sourceGroupIndex" : 0
		},
		{
			"backtrace" : 1,
			"compileGroupIndex" : 0,
			"path" : "/Users/sv/android_projects/MIF/JEFF/rnnoise-hearing-example/oboe/src/flowgraph/resampler/PolyphaseResamplerMono.cpp",
			"sourceGroupIndex" : 0
		},
		{
			"backtrace" : 1,
			"compileGroupIndex" : 0,
			"path" : "/Users/sv/android_projects/MIF/JEFF/rnnoise-hearing-example/oboe/src/flowgraph/resampler/PolyphaseResamplerStereo.cpp",
			"sourceGroupIndex" : 0
		},
		{
			"backtrace" : 1,
			"compileGroupIndex" : 0,
			"path" : "/Users/sv/android_projects/MIF/JEFF/rnnoise-hearing-example/oboe/src/flowgraph/resampler/SincResampler.cpp",
			"sourceGroupIndex" : 0
		},
		{
			"backtrace" : 1,
			"compileGroupIndex" : 0,
			"path" : "/Users/sv/android_projects/MIF/JEFF/rnnoise-hearing-example/oboe/src/flowgraph/resampler/SincResamplerStereo.cpp",
			"sourceGroupIndex" : 0
		},
		{
			"backtrace" : 1,
			"compileGroupIndex" : 0,
			"path" : "/Users/sv/android_projects/MIF/JEFF/rnnoise-hearing-example/oboe/src/opensles/AudioInputStreamOpenSLES.cpp",
			"sourceGroupIndex" : 0
		},
		{
			"backtrace" : 1,
			"compileGroupIndex" : 0,
			"path" : "/Users/sv/android_projects/MIF/JEFF/rnnoise-hearing-example/oboe/src/opensles/AudioOutputStreamOpenSLES.cpp",
			"sourceGroupIndex" : 0
		},
		{
			"backtrace" : 1,
			"compileGroupIndex" : 0,
			"path" : "/Users/sv/android_projects/MIF/JEFF/rnnoise-hearing-example/oboe/src/opensles/AudioStreamBuffered.cpp",
			"sourceGroupIndex" : 0
		},
		{
			"backtrace" : 1,
			"compileGroupIndex" : 0,
			"path" : "/Users/sv/android_projects/MIF/JEFF/rnnoise-hearing-example/oboe/src/opensles/AudioStreamOpenSLES.cpp",
			"sourceGroupIndex" : 0
		},
		{
			"backtrace" : 1,
			"compileGroupIndex" : 0,
			"path" : "/Users/sv/android_projects/MIF/JEFF/rnnoise-hearing-example/oboe/src/opensles/EngineOpenSLES.cpp",
			"sourceGroupIndex" : 0
		},
		{
			"backtrace" : 1,
			"compileGroupIndex" : 0,
			"path" : "/Users/sv/android_projects/MIF/JEFF/rnnoise-hearing-example/oboe/src/opensles/OpenSLESUtilities.cpp",
			"sourceGroupIndex" : 0
		},
		{
			"backtrace" : 1,
			"compileGroupIndex" : 0,
			"path" : "/Users/sv/android_projects/MIF/JEFF/rnnoise-hearing-example/oboe/src/opensles/OutputMixerOpenSLES.cpp",
			"sourceGroupIndex" : 0
		},
		{
			"backtrace" : 1,
			"compileGroupIndex" : 0,
			"path" : "/Users/sv/android_projects/MIF/JEFF/rnnoise-hearing-example/oboe/src/common/StabilizedCallback.cpp",
			"sourceGroupIndex" : 0
		},
		{
			"backtrace" : 1,
			"compileGroupIndex" : 0,
			"path" : "/Users/sv/android_projects/MIF/JEFF/rnnoise-hearing-example/oboe/src/common/Trace.cpp",
			"sourceGroupIndex" : 0
		},
		{
			"backtrace" : 1,
			"compileGroupIndex" : 0,
			"path" : "/Users/sv/android_projects/MIF/JEFF/rnnoise-hearing-example/oboe/src/common/Version.cpp",
			"sourceGroupIndex" : 0
		}
	],
	"type" : "STATIC_LIBRARY"
}
