{
  "buildFiles": [
    "/Users/sv/android_projects/MIF/JEFF/rnnoise-hearing-example/rnnoisewrapper/src/main/cpp/CMakeLists.txt"
  ],
  "cleanCommandsComponents": [
    [
      "/Users/sv/Library/Android/sdk/cmake/3.22.1/bin/ninja",
      "-C",
      "/Users/sv/android_projects/MIF/JEFF/rnnoise-hearing-example/rnnoisewrapper/.cxx/RelWithDebInfo/195k5b1h/armeabi-v7a",
      "clean"
    ]
  ],
  "buildTargetsCommandComponents": [
    "/Users/sv/Library/Android/sdk/cmake/3.22.1/bin/ninja",
    "-C",
    "/Users/sv/android_projects/MIF/JEFF/rnnoise-hearing-example/rnnoisewrapper/.cxx/RelWithDebInfo/195k5b1h/armeabi-v7a",
    "{LIST_OF_TARGETS_TO_BUILD}"
  ],
  "libraries": {
    "rnnoisewrapper::@6890427a1f51a3e7e1df": {
      "toolchain": "toolchain",
      "abi": "armeabi-v7a",
      "artifactName": "rnnoisewrapper",
      "output": "/Users/sv/android_projects/MIF/JEFF/rnnoise-hearing-example/rnnoisewrapper/build/intermediates/cxx/RelWithDebInfo/195k5b1h/obj/armeabi-v7a/librnnoisewrapper.so",
      "runtimeFiles": []
    }
  },
  "toolchains": {
    "toolchain": {
      "cCompilerExecutable": "/Users/sv/Library/Android/sdk/ndk/25.1.8937393/toolchains/llvm/prebuilt/darwin-x86_64/bin/clang.lld",
      "cppCompilerExecutable": "/Users/sv/Library/Android/sdk/ndk/25.1.8937393/toolchains/llvm/prebuilt/darwin-x86_64/bin/clang++.lld"
    }
  },
  "cFileExtensions": [
    "c"
  ],
  "cppFileExtensions": [
    "cpp"
  ]
}