[
{
  "directory": "/Users/sv/android_projects/MIF/JEFF/rnnoise-hearing-example/app/.cxx/RelWithDebInfo/4f20nz1l/armeabi-v7a",
  "command": "/Users/sv/Library/Android/sdk/ndk/25.1.8937393/toolchains/llvm/prebuilt/darwin-x86_64/bin/clang --target=armv7-none-linux-androideabi23 --sysroot=/Users/sv/Library/Android/sdk/ndk/25.1.8937393/toolchains/llvm/prebuilt/darwin-x86_64/sysroot -DEXPORT=\"\" -DFIXED_POINT -DUSE_ALLOCA -DUSE_KISS_FFT -Daudio_engine_EXPORTS -I/Users/sv/android_projects/MIF/JEFF/rnnoise-hearing-example/app/src/main/cpp/../../../../oboe/include -I/Users/sv/android_projects/MIF/JEFF/rnnoise-hearing-example/oboe/include -g -DANDROID -fdata-sections -ffunction-sections -funwind-tables -fstack-protector-strong -no-canonical-prefixes -D_FORTIFY_SOURCE=2 -march=armv7-a -mthumb -Wformat -Werror=format-security  -O2 -g -DNDEBUG -fPIC   -UHAVE_CONFIG_H -o CMakeFiles/audio-engine.dir/noise_suppression/libspeexdsp/buffer.c.o -c /Users/sv/android_projects/MIF/JEFF/rnnoise-hearing-example/app/src/main/cpp/noise_suppression/libspeexdsp/buffer.c",
  "file": "/Users/sv/android_projects/MIF/JEFF/rnnoise-hearing-example/app/src/main/cpp/noise_suppression/libspeexdsp/buffer.c"
},
{
  "directory": "/Users/sv/android_projects/MIF/JEFF/rnnoise-hearing-example/app/.cxx/RelWithDebInfo/4f20nz1l/armeabi-v7a",
  "command": "/Users/sv/Library/Android/sdk/ndk/25.1.8937393/toolchains/llvm/prebuilt/darwin-x86_64/bin/clang --target=armv7-none-linux-androideabi23 --sysroot=/Users/sv/Library/Android/sdk/ndk/25.1.8937393/toolchains/llvm/prebuilt/darwin-x86_64/sysroot -DEXPORT=\"\" -DFIXED_POINT -DUSE_ALLOCA -DUSE_KISS_FFT -Daudio_engine_EXPORTS -I/Users/sv/android_projects/MIF/JEFF/rnnoise-hearing-example/app/src/main/cpp/../../../../oboe/include -I/Users/sv/android_projects/MIF/JEFF/rnnoise-hearing-example/oboe/include -g -DANDROID -fdata-sections -ffunction-sections -funwind-tables -fstack-protector-strong -no-canonical-prefixes -D_FORTIFY_SOURCE=2 -march=armv7-a -mthumb -Wformat -Werror=format-security  -O2 -g -DNDEBUG -fPIC   -UHAVE_CONFIG_H -o CMakeFiles/audio-engine.dir/noise_suppression/libspeexdsp/fftwrap.c.o -c /Users/sv/android_projects/MIF/JEFF/rnnoise-hearing-example/app/src/main/cpp/noise_suppression/libspeexdsp/fftwrap.c",
  "file": "/Users/sv/android_projects/MIF/JEFF/rnnoise-hearing-example/app/src/main/cpp/noise_suppression/libspeexdsp/fftwrap.c"
},
{
  "directory": "/Users/sv/android_projects/MIF/JEFF/rnnoise-hearing-example/app/.cxx/RelWithDebInfo/4f20nz1l/armeabi-v7a",
  "command": "/Users/sv/Library/Android/sdk/ndk/25.1.8937393/toolchains/llvm/prebuilt/darwin-x86_64/bin/clang --target=armv7-none-linux-androideabi23 --sysroot=/Users/sv/Library/Android/sdk/ndk/25.1.8937393/toolchains/llvm/prebuilt/darwin-x86_64/sysroot -DEXPORT=\"\" -DFIXED_POINT -DUSE_ALLOCA -DUSE_KISS_FFT -Daudio_engine_EXPORTS -I/Users/sv/android_projects/MIF/JEFF/rnnoise-hearing-example/app/src/main/cpp/../../../../oboe/include -I/Users/sv/android_projects/MIF/JEFF/rnnoise-hearing-example/oboe/include -g -DANDROID -fdata-sections -ffunction-sections -funwind-tables -fstack-protector-strong -no-canonical-prefixes -D_FORTIFY_SOURCE=2 -march=armv7-a -mthumb -Wformat -Werror=format-security  -O2 -g -DNDEBUG -fPIC   -UHAVE_CONFIG_H -o CMakeFiles/audio-engine.dir/noise_suppression/libspeexdsp/filterbank.c.o -c /Users/sv/android_projects/MIF/JEFF/rnnoise-hearing-example/app/src/main/cpp/noise_suppression/libspeexdsp/filterbank.c",
  "file": "/Users/sv/android_projects/MIF/JEFF/rnnoise-hearing-example/app/src/main/cpp/noise_suppression/libspeexdsp/filterbank.c"
},
{
  "directory": "/Users/sv/android_projects/MIF/JEFF/rnnoise-hearing-example/app/.cxx/RelWithDebInfo/4f20nz1l/armeabi-v7a",
  "command": "/Users/sv/Library/Android/sdk/ndk/25.1.8937393/toolchains/llvm/prebuilt/darwin-x86_64/bin/clang --target=armv7-none-linux-androideabi23 --sysroot=/Users/sv/Library/Android/sdk/ndk/25.1.8937393/toolchains/llvm/prebuilt/darwin-x86_64/sysroot -DEXPORT=\"\" -DFIXED_POINT -DUSE_ALLOCA -DUSE_KISS_FFT -Daudio_engine_EXPORTS -I/Users/sv/android_projects/MIF/JEFF/rnnoise-hearing-example/app/src/main/cpp/../../../../oboe/include -I/Users/sv/android_projects/MIF/JEFF/rnnoise-hearing-example/oboe/include -g -DANDROID -fdata-sections -ffunction-sections -funwind-tables -fstack-protector-strong -no-canonical-prefixes -D_FORTIFY_SOURCE=2 -march=armv7-a -mthumb -Wformat -Werror=format-security  -O2 -g -DNDEBUG -fPIC   -UHAVE_CONFIG_H -o CMakeFiles/audio-engine.dir/noise_suppression/libspeexdsp/jitter.c.o -c /Users/sv/android_projects/MIF/JEFF/rnnoise-hearing-example/app/src/main/cpp/noise_suppression/libspeexdsp/jitter.c",
  "file": "/Users/sv/android_projects/MIF/JEFF/rnnoise-hearing-example/app/src/main/cpp/noise_suppression/libspeexdsp/jitter.c"
},
{
  "directory": "/Users/sv/android_projects/MIF/JEFF/rnnoise-hearing-example/app/.cxx/RelWithDebInfo/4f20nz1l/armeabi-v7a",
  "command": "/Users/sv/Library/Android/sdk/ndk/25.1.8937393/toolchains/llvm/prebuilt/darwin-x86_64/bin/clang --target=armv7-none-linux-androideabi23 --sysroot=/Users/sv/Library/Android/sdk/ndk/25.1.8937393/toolchains/llvm/prebuilt/darwin-x86_64/sysroot -DEXPORT=\"\" -DFIXED_POINT -DUSE_ALLOCA -DUSE_KISS_FFT -Daudio_engine_EXPORTS -I/Users/sv/android_projects/MIF/JEFF/rnnoise-hearing-example/app/src/main/cpp/../../../../oboe/include -I/Users/sv/android_projects/MIF/JEFF/rnnoise-hearing-example/oboe/include -g -DANDROID -fdata-sections -ffunction-sections -funwind-tables -fstack-protector-strong -no-canonical-prefixes -D_FORTIFY_SOURCE=2 -march=armv7-a -mthumb -Wformat -Werror=format-security  -O2 -g -DNDEBUG -fPIC   -UHAVE_CONFIG_H -o CMakeFiles/audio-engine.dir/noise_suppression/libspeexdsp/kiss_fft.c.o -c /Users/sv/android_projects/MIF/JEFF/rnnoise-hearing-example/app/src/main/cpp/noise_suppression/libspeexdsp/kiss_fft.c",
  "file": "/Users/sv/android_projects/MIF/JEFF/rnnoise-hearing-example/app/src/main/cpp/noise_suppression/libspeexdsp/kiss_fft.c"
},
{
  "directory": "/Users/sv/android_projects/MIF/JEFF/rnnoise-hearing-example/app/.cxx/RelWithDebInfo/4f20nz1l/armeabi-v7a",
  "command": "/Users/sv/Library/Android/sdk/ndk/25.1.8937393/toolchains/llvm/prebuilt/darwin-x86_64/bin/clang --target=armv7-none-linux-androideabi23 --sysroot=/Users/sv/Library/Android/sdk/ndk/25.1.8937393/toolchains/llvm/prebuilt/darwin-x86_64/sysroot -DEXPORT=\"\" -DFIXED_POINT -DUSE_ALLOCA -DUSE_KISS_FFT -Daudio_engine_EXPORTS -I/Users/sv/android_projects/MIF/JEFF/rnnoise-hearing-example/app/src/main/cpp/../../../../oboe/include -I/Users/sv/android_projects/MIF/JEFF/rnnoise-hearing-example/oboe/include -g -DANDROID -fdata-sections -ffunction-sections -funwind-tables -fstack-protector-strong -no-canonical-prefixes -D_FORTIFY_SOURCE=2 -march=armv7-a -mthumb -Wformat -Werror=format-security  -O2 -g -DNDEBUG -fPIC   -UHAVE_CONFIG_H -o CMakeFiles/audio-engine.dir/noise_suppression/libspeexdsp/kiss_fftr.c.o -c /Users/sv/android_projects/MIF/JEFF/rnnoise-hearing-example/app/src/main/cpp/noise_suppression/libspeexdsp/kiss_fftr.c",
  "file": "/Users/sv/android_projects/MIF/JEFF/rnnoise-hearing-example/app/src/main/cpp/noise_suppression/libspeexdsp/kiss_fftr.c"
},
{
  "directory": "/Users/sv/android_projects/MIF/JEFF/rnnoise-hearing-example/app/.cxx/RelWithDebInfo/4f20nz1l/armeabi-v7a",
  "command": "/Users/sv/Library/Android/sdk/ndk/25.1.8937393/toolchains/llvm/prebuilt/darwin-x86_64/bin/clang --target=armv7-none-linux-androideabi23 --sysroot=/Users/sv/Library/Android/sdk/ndk/25.1.8937393/toolchains/llvm/prebuilt/darwin-x86_64/sysroot -DEXPORT=\"\" -DFIXED_POINT -DUSE_ALLOCA -DUSE_KISS_FFT -Daudio_engine_EXPORTS -I/Users/sv/android_projects/MIF/JEFF/rnnoise-hearing-example/app/src/main/cpp/../../../../oboe/include -I/Users/sv/android_projects/MIF/JEFF/rnnoise-hearing-example/oboe/include -g -DANDROID -fdata-sections -ffunction-sections -funwind-tables -fstack-protector-strong -no-canonical-prefixes -D_FORTIFY_SOURCE=2 -march=armv7-a -mthumb -Wformat -Werror=format-security  -O2 -g -DNDEBUG -fPIC   -UHAVE_CONFIG_H -o CMakeFiles/audio-engine.dir/noise_suppression/libspeexdsp/mdf.c.o -c /Users/sv/android_projects/MIF/JEFF/rnnoise-hearing-example/app/src/main/cpp/noise_suppression/libspeexdsp/mdf.c",
  "file": "/Users/sv/android_projects/MIF/JEFF/rnnoise-hearing-example/app/src/main/cpp/noise_suppression/libspeexdsp/mdf.c"
},
{
  "directory": "/Users/sv/android_projects/MIF/JEFF/rnnoise-hearing-example/app/.cxx/RelWithDebInfo/4f20nz1l/armeabi-v7a",
  "command": "/Users/sv/Library/Android/sdk/ndk/25.1.8937393/toolchains/llvm/prebuilt/darwin-x86_64/bin/clang --target=armv7-none-linux-androideabi23 --sysroot=/Users/sv/Library/Android/sdk/ndk/25.1.8937393/toolchains/llvm/prebuilt/darwin-x86_64/sysroot -DEXPORT=\"\" -DFIXED_POINT -DUSE_ALLOCA -DUSE_KISS_FFT -Daudio_engine_EXPORTS -I/Users/sv/android_projects/MIF/JEFF/rnnoise-hearing-example/app/src/main/cpp/../../../../oboe/include -I/Users/sv/android_projects/MIF/JEFF/rnnoise-hearing-example/oboe/include -g -DANDROID -fdata-sections -ffunction-sections -funwind-tables -fstack-protector-strong -no-canonical-prefixes -D_FORTIFY_SOURCE=2 -march=armv7-a -mthumb -Wformat -Werror=format-security  -O2 -g -DNDEBUG -fPIC   -UHAVE_CONFIG_H -o CMakeFiles/audio-engine.dir/noise_suppression/libspeexdsp/preprocess.c.o -c /Users/sv/android_projects/MIF/JEFF/rnnoise-hearing-example/app/src/main/cpp/noise_suppression/libspeexdsp/preprocess.c",
  "file": "/Users/sv/android_projects/MIF/JEFF/rnnoise-hearing-example/app/src/main/cpp/noise_suppression/libspeexdsp/preprocess.c"
},
{
  "directory": "/Users/sv/android_projects/MIF/JEFF/rnnoise-hearing-example/app/.cxx/RelWithDebInfo/4f20nz1l/armeabi-v7a",
  "command": "/Users/sv/Library/Android/sdk/ndk/25.1.8937393/toolchains/llvm/prebuilt/darwin-x86_64/bin/clang --target=armv7-none-linux-androideabi23 --sysroot=/Users/sv/Library/Android/sdk/ndk/25.1.8937393/toolchains/llvm/prebuilt/darwin-x86_64/sysroot -DEXPORT=\"\" -DFIXED_POINT -DUSE_ALLOCA -DUSE_KISS_FFT -Daudio_engine_EXPORTS -I/Users/sv/android_projects/MIF/JEFF/rnnoise-hearing-example/app/src/main/cpp/../../../../oboe/include -I/Users/sv/android_projects/MIF/JEFF/rnnoise-hearing-example/oboe/include -g -DANDROID -fdata-sections -ffunction-sections -funwind-tables -fstack-protector-strong -no-canonical-prefixes -D_FORTIFY_SOURCE=2 -march=armv7-a -mthumb -Wformat -Werror=format-security  -O2 -g -DNDEBUG -fPIC   -UHAVE_CONFIG_H -o CMakeFiles/audio-engine.dir/noise_suppression/libspeexdsp/resample.c.o -c /Users/sv/android_projects/MIF/JEFF/rnnoise-hearing-example/app/src/main/cpp/noise_suppression/libspeexdsp/resample.c",
  "file": "/Users/sv/android_projects/MIF/JEFF/rnnoise-hearing-example/app/src/main/cpp/noise_suppression/libspeexdsp/resample.c"
},
{
  "directory": "/Users/sv/android_projects/MIF/JEFF/rnnoise-hearing-example/app/.cxx/RelWithDebInfo/4f20nz1l/armeabi-v7a",
  "command": "/Users/sv/Library/Android/sdk/ndk/25.1.8937393/toolchains/llvm/prebuilt/darwin-x86_64/bin/clang --target=armv7-none-linux-androideabi23 --sysroot=/Users/sv/Library/Android/sdk/ndk/25.1.8937393/toolchains/llvm/prebuilt/darwin-x86_64/sysroot -DEXPORT=\"\" -DFIXED_POINT -DUSE_ALLOCA -DUSE_KISS_FFT -Daudio_engine_EXPORTS -I/Users/sv/android_projects/MIF/JEFF/rnnoise-hearing-example/app/src/main/cpp/../../../../oboe/include -I/Users/sv/android_projects/MIF/JEFF/rnnoise-hearing-example/oboe/include -g -DANDROID -fdata-sections -ffunction-sections -funwind-tables -fstack-protector-strong -no-canonical-prefixes -D_FORTIFY_SOURCE=2 -march=armv7-a -mthumb -Wformat -Werror=format-security  -O2 -g -DNDEBUG -fPIC   -UHAVE_CONFIG_H -o CMakeFiles/audio-engine.dir/noise_suppression/libspeexdsp/scal.c.o -c /Users/sv/android_projects/MIF/JEFF/rnnoise-hearing-example/app/src/main/cpp/noise_suppression/libspeexdsp/scal.c",
  "file": "/Users/sv/android_projects/MIF/JEFF/rnnoise-hearing-example/app/src/main/cpp/noise_suppression/libspeexdsp/scal.c"
},
{
  "directory": "/Users/sv/android_projects/MIF/JEFF/rnnoise-hearing-example/app/.cxx/RelWithDebInfo/4f20nz1l/armeabi-v7a",
  "command": "/Users/sv/Library/Android/sdk/ndk/25.1.8937393/toolchains/llvm/prebuilt/darwin-x86_64/bin/clang --target=armv7-none-linux-androideabi23 --sysroot=/Users/sv/Library/Android/sdk/ndk/25.1.8937393/toolchains/llvm/prebuilt/darwin-x86_64/sysroot -DEXPORT=\"\" -DFIXED_POINT -DUSE_ALLOCA -DUSE_KISS_FFT -Daudio_engine_EXPORTS -I/Users/sv/android_projects/MIF/JEFF/rnnoise-hearing-example/app/src/main/cpp/../../../../oboe/include -I/Users/sv/android_projects/MIF/JEFF/rnnoise-hearing-example/oboe/include -g -DANDROID -fdata-sections -ffunction-sections -funwind-tables -fstack-protector-strong -no-canonical-prefixes -D_FORTIFY_SOURCE=2 -march=armv7-a -mthumb -Wformat -Werror=format-security  -O2 -g -DNDEBUG -fPIC   -UHAVE_CONFIG_H -o CMakeFiles/audio-engine.dir/noise_suppression/libspeexdsp/smallft.c.o -c /Users/sv/android_projects/MIF/JEFF/rnnoise-hearing-example/app/src/main/cpp/noise_suppression/libspeexdsp/smallft.c",
  "file": "/Users/sv/android_projects/MIF/JEFF/rnnoise-hearing-example/app/src/main/cpp/noise_suppression/libspeexdsp/smallft.c"
},
{
  "directory": "/Users/sv/android_projects/MIF/JEFF/rnnoise-hearing-example/app/.cxx/RelWithDebInfo/4f20nz1l/armeabi-v7a",
  "command": "/Users/sv/Library/Android/sdk/ndk/25.1.8937393/toolchains/llvm/prebuilt/darwin-x86_64/bin/clang --target=armv7-none-linux-androideabi23 --sysroot=/Users/sv/Library/Android/sdk/ndk/25.1.8937393/toolchains/llvm/prebuilt/darwin-x86_64/sysroot -DEXPORT=\"\" -DFIXED_POINT -DUSE_ALLOCA -DUSE_KISS_FFT -Daudio_engine_EXPORTS -I/Users/sv/android_projects/MIF/JEFF/rnnoise-hearing-example/app/src/main/cpp/../../../../oboe/include -I/Users/sv/android_projects/MIF/JEFF/rnnoise-hearing-example/oboe/include -g -DANDROID -fdata-sections -ffunction-sections -funwind-tables -fstack-protector-strong -no-canonical-prefixes -D_FORTIFY_SOURCE=2 -march=armv7-a -mthumb -Wformat -Werror=format-security  -O2 -g -DNDEBUG -fPIC   -UHAVE_CONFIG_H -o CMakeFiles/audio-engine.dir/noise_suppression/libspeexdsp/speex_process.c.o -c /Users/sv/android_projects/MIF/JEFF/rnnoise-hearing-example/app/src/main/cpp/noise_suppression/libspeexdsp/speex_process.c",
  "file": "/Users/sv/android_projects/MIF/JEFF/rnnoise-hearing-example/app/src/main/cpp/noise_suppression/libspeexdsp/speex_process.c"
},
{
  "directory": "/Users/sv/android_projects/MIF/JEFF/rnnoise-hearing-example/app/.cxx/RelWithDebInfo/4f20nz1l/armeabi-v7a",
  "command": "/Users/sv/Library/Android/sdk/ndk/25.1.8937393/toolchains/llvm/prebuilt/darwin-x86_64/bin/clang++ --target=armv7-none-linux-androideabi23 --sysroot=/Users/sv/Library/Android/sdk/ndk/25.1.8937393/toolchains/llvm/prebuilt/darwin-x86_64/sysroot -DEXPORT=\"\" -DFIXED_POINT -DUSE_ALLOCA -DUSE_KISS_FFT -Daudio_engine_EXPORTS -I/Users/sv/android_projects/MIF/JEFF/rnnoise-hearing-example/app/src/main/cpp/../../../../oboe/include -I/Users/sv/android_projects/MIF/JEFF/rnnoise-hearing-example/oboe/include -g -DANDROID -fdata-sections -ffunction-sections -funwind-tables -fstack-protector-strong -no-canonical-prefixes -D_FORTIFY_SOURCE=2 -march=armv7-a -mthumb -Wformat -Werror=format-security   -O2 -g -DNDEBUG -fPIC   -UHAVE_CONFIG_H -o CMakeFiles/audio-engine.dir/noise_suppression/NoiseSuppressor.cpp.o -c /Users/sv/android_projects/MIF/JEFF/rnnoise-hearing-example/app/src/main/cpp/noise_suppression/NoiseSuppressor.cpp",
  "file": "/Users/sv/android_projects/MIF/JEFF/rnnoise-hearing-example/app/src/main/cpp/noise_suppression/NoiseSuppressor.cpp"
},
{
  "directory": "/Users/sv/android_projects/MIF/JEFF/rnnoise-hearing-example/app/.cxx/RelWithDebInfo/4f20nz1l/armeabi-v7a",
  "command": "/Users/sv/Library/Android/sdk/ndk/25.1.8937393/toolchains/llvm/prebuilt/darwin-x86_64/bin/clang++ --target=armv7-none-linux-androideabi23 --sysroot=/Users/sv/Library/Android/sdk/ndk/25.1.8937393/toolchains/llvm/prebuilt/darwin-x86_64/sysroot -DEXPORT=\"\" -DFIXED_POINT -DUSE_ALLOCA -DUSE_KISS_FFT -Daudio_engine_EXPORTS -I/Users/sv/android_projects/MIF/JEFF/rnnoise-hearing-example/app/src/main/cpp/../../../../oboe/include -I/Users/sv/android_projects/MIF/JEFF/rnnoise-hearing-example/oboe/include -g -DANDROID -fdata-sections -ffunction-sections -funwind-tables -fstack-protector-strong -no-canonical-prefixes -D_FORTIFY_SOURCE=2 -march=armv7-a -mthumb -Wformat -Werror=format-security   -O2 -g -DNDEBUG -fPIC   -UHAVE_CONFIG_H -o CMakeFiles/audio-engine.dir/equalizer/iir/XYData.cpp.o -c /Users/sv/android_projects/MIF/JEFF/rnnoise-hearing-example/app/src/main/cpp/equalizer/iir/XYData.cpp",
  "file": "/Users/sv/android_projects/MIF/JEFF/rnnoise-hearing-example/app/src/main/cpp/equalizer/iir/XYData.cpp"
},
{
  "directory": "/Users/sv/android_projects/MIF/JEFF/rnnoise-hearing-example/app/.cxx/RelWithDebInfo/4f20nz1l/armeabi-v7a",
  "command": "/Users/sv/Library/Android/sdk/ndk/25.1.8937393/toolchains/llvm/prebuilt/darwin-x86_64/bin/clang++ --target=armv7-none-linux-androideabi23 --sysroot=/Users/sv/Library/Android/sdk/ndk/25.1.8937393/toolchains/llvm/prebuilt/darwin-x86_64/sysroot -DEXPORT=\"\" -DFIXED_POINT -DUSE_ALLOCA -DUSE_KISS_FFT -Daudio_engine_EXPORTS -I/Users/sv/android_projects/MIF/JEFF/rnnoise-hearing-example/app/src/main/cpp/../../../../oboe/include -I/Users/sv/android_projects/MIF/JEFF/rnnoise-hearing-example/oboe/include -g -DANDROID -fdata-sections -ffunction-sections -funwind-tables -fstack-protector-strong -no-canonical-prefixes -D_FORTIFY_SOURCE=2 -march=armv7-a -mthumb -Wformat -Werror=format-security   -O2 -g -DNDEBUG -fPIC   -UHAVE_CONFIG_H -o CMakeFiles/audio-engine.dir/equalizer/iir/IIRControls.cpp.o -c /Users/sv/android_projects/MIF/JEFF/rnnoise-hearing-example/app/src/main/cpp/equalizer/iir/IIRControls.cpp",
  "file": "/Users/sv/android_projects/MIF/JEFF/rnnoise-hearing-example/app/src/main/cpp/equalizer/iir/IIRControls.cpp"
},
{
  "directory": "/Users/sv/android_projects/MIF/JEFF/rnnoise-hearing-example/app/.cxx/RelWithDebInfo/4f20nz1l/armeabi-v7a",
  "command": "/Users/sv/Library/Android/sdk/ndk/25.1.8937393/toolchains/llvm/prebuilt/darwin-x86_64/bin/clang++ --target=armv7-none-linux-androideabi23 --sysroot=/Users/sv/Library/Android/sdk/ndk/25.1.8937393/toolchains/llvm/prebuilt/darwin-x86_64/sysroot -DEXPORT=\"\" -DFIXED_POINT -DUSE_ALLOCA -DUSE_KISS_FFT -Daudio_engine_EXPORTS -I/Users/sv/android_projects/MIF/JEFF/rnnoise-hearing-example/app/src/main/cpp/../../../../oboe/include -I/Users/sv/android_projects/MIF/JEFF/rnnoise-hearing-example/oboe/include -g -DANDROID -fdata-sections -ffunction-sections -funwind-tables -fstack-protector-strong -no-canonical-prefixes -D_FORTIFY_SOURCE=2 -march=armv7-a -mthumb -Wformat -Werror=format-security   -O2 -g -DNDEBUG -fPIC   -UHAVE_CONFIG_H -o CMakeFiles/audio-engine.dir/equalizer/iir/IIREqualizer.cpp.o -c /Users/sv/android_projects/MIF/JEFF/rnnoise-hearing-example/app/src/main/cpp/equalizer/iir/IIREqualizer.cpp",
  "file": "/Users/sv/android_projects/MIF/JEFF/rnnoise-hearing-example/app/src/main/cpp/equalizer/iir/IIREqualizer.cpp"
},
{
  "directory": "/Users/sv/android_projects/MIF/JEFF/rnnoise-hearing-example/app/.cxx/RelWithDebInfo/4f20nz1l/armeabi-v7a",
  "command": "/Users/sv/Library/Android/sdk/ndk/25.1.8937393/toolchains/llvm/prebuilt/darwin-x86_64/bin/clang++ --target=armv7-none-linux-androideabi23 --sysroot=/Users/sv/Library/Android/sdk/ndk/25.1.8937393/toolchains/llvm/prebuilt/darwin-x86_64/sysroot -DEXPORT=\"\" -DFIXED_POINT -DUSE_ALLOCA -DUSE_KISS_FFT -Daudio_engine_EXPORTS -I/Users/sv/android_projects/MIF/JEFF/rnnoise-hearing-example/app/src/main/cpp/../../../../oboe/include -I/Users/sv/android_projects/MIF/JEFF/rnnoise-hearing-example/oboe/include -g -DANDROID -fdata-sections -ffunction-sections -funwind-tables -fstack-protector-strong -no-canonical-prefixes -D_FORTIFY_SOURCE=2 -march=armv7-a -mthumb -Wformat -Werror=format-security   -O2 -g -DNDEBUG -fPIC   -UHAVE_CONFIG_H -o CMakeFiles/audio-engine.dir/equalizer/Equalizer.cpp.o -c /Users/sv/android_projects/MIF/JEFF/rnnoise-hearing-example/app/src/main/cpp/equalizer/Equalizer.cpp",
  "file": "/Users/sv/android_projects/MIF/JEFF/rnnoise-hearing-example/app/src/main/cpp/equalizer/Equalizer.cpp"
},
{
  "directory": "/Users/sv/android_projects/MIF/JEFF/rnnoise-hearing-example/app/.cxx/RelWithDebInfo/4f20nz1l/armeabi-v7a",
  "command": "/Users/sv/Library/Android/sdk/ndk/25.1.8937393/toolchains/llvm/prebuilt/darwin-x86_64/bin/clang++ --target=armv7-none-linux-androideabi23 --sysroot=/Users/sv/Library/Android/sdk/ndk/25.1.8937393/toolchains/llvm/prebuilt/darwin-x86_64/sysroot -DEXPORT=\"\" -DFIXED_POINT -DUSE_ALLOCA -DUSE_KISS_FFT -Daudio_engine_EXPORTS -I/Users/sv/android_projects/MIF/JEFF/rnnoise-hearing-example/app/src/main/cpp/../../../../oboe/include -I/Users/sv/android_projects/MIF/JEFF/rnnoise-hearing-example/oboe/include -g -DANDROID -fdata-sections -ffunction-sections -funwind-tables -fstack-protector-strong -no-canonical-prefixes -D_FORTIFY_SOURCE=2 -march=armv7-a -mthumb -Wformat -Werror=format-security   -O2 -g -DNDEBUG -fPIC   -UHAVE_CONFIG_H -o CMakeFiles/audio-engine.dir/analyzer/data/ObservableShortArray.cpp.o -c /Users/sv/android_projects/MIF/JEFF/rnnoise-hearing-example/app/src/main/cpp/analyzer/data/ObservableShortArray.cpp",
  "file": "/Users/sv/android_projects/MIF/JEFF/rnnoise-hearing-example/app/src/main/cpp/analyzer/data/ObservableShortArray.cpp"
},
{
  "directory": "/Users/sv/android_projects/MIF/JEFF/rnnoise-hearing-example/app/.cxx/RelWithDebInfo/4f20nz1l/armeabi-v7a",
  "command": "/Users/sv/Library/Android/sdk/ndk/25.1.8937393/toolchains/llvm/prebuilt/darwin-x86_64/bin/clang++ --target=armv7-none-linux-androideabi23 --sysroot=/Users/sv/Library/Android/sdk/ndk/25.1.8937393/toolchains/llvm/prebuilt/darwin-x86_64/sysroot -DEXPORT=\"\" -DFIXED_POINT -DUSE_ALLOCA -DUSE_KISS_FFT -Daudio_engine_EXPORTS -I/Users/sv/android_projects/MIF/JEFF/rnnoise-hearing-example/app/src/main/cpp/../../../../oboe/include -I/Users/sv/android_projects/MIF/JEFF/rnnoise-hearing-example/oboe/include -g -DANDROID -fdata-sections -ffunction-sections -funwind-tables -fstack-protector-strong -no-canonical-prefixes -D_FORTIFY_SOURCE=2 -march=armv7-a -mthumb -Wformat -Werror=format-security   -O2 -g -DNDEBUG -fPIC   -UHAVE_CONFIG_H -o CMakeFiles/audio-engine.dir/analyzer/filters/HammingWindow.cpp.o -c /Users/sv/android_projects/MIF/JEFF/rnnoise-hearing-example/app/src/main/cpp/analyzer/filters/HammingWindow.cpp",
  "file": "/Users/sv/android_projects/MIF/JEFF/rnnoise-hearing-example/app/src/main/cpp/analyzer/filters/HammingWindow.cpp"
},
{
  "directory": "/Users/sv/android_projects/MIF/JEFF/rnnoise-hearing-example/app/.cxx/RelWithDebInfo/4f20nz1l/armeabi-v7a",
  "command": "/Users/sv/Library/Android/sdk/ndk/25.1.8937393/toolchains/llvm/prebuilt/darwin-x86_64/bin/clang++ --target=armv7-none-linux-androideabi23 --sysroot=/Users/sv/Library/Android/sdk/ndk/25.1.8937393/toolchains/llvm/prebuilt/darwin-x86_64/sysroot -DEXPORT=\"\" -DFIXED_POINT -DUSE_ALLOCA -DUSE_KISS_FFT -Daudio_engine_EXPORTS -I/Users/sv/android_projects/MIF/JEFF/rnnoise-hearing-example/app/src/main/cpp/../../../../oboe/include -I/Users/sv/android_projects/MIF/JEFF/rnnoise-hearing-example/oboe/include -g -DANDROID -fdata-sections -ffunction-sections -funwind-tables -fstack-protector-strong -no-canonical-prefixes -D_FORTIFY_SOURCE=2 -march=armv7-a -mthumb -Wformat -Werror=format-security   -O2 -g -DNDEBUG -fPIC   -UHAVE_CONFIG_H -o CMakeFiles/audio-engine.dir/analyzer/filters/LowPassFilter.cpp.o -c /Users/sv/android_projects/MIF/JEFF/rnnoise-hearing-example/app/src/main/cpp/analyzer/filters/LowPassFilter.cpp",
  "file": "/Users/sv/android_projects/MIF/JEFF/rnnoise-hearing-example/app/src/main/cpp/analyzer/filters/LowPassFilter.cpp"
},
{
  "directory": "/Users/sv/android_projects/MIF/JEFF/rnnoise-hearing-example/app/.cxx/RelWithDebInfo/4f20nz1l/armeabi-v7a",
  "command": "/Users/sv/Library/Android/sdk/ndk/25.1.8937393/toolchains/llvm/prebuilt/darwin-x86_64/bin/clang++ --target=armv7-none-linux-androideabi23 --sysroot=/Users/sv/Library/Android/sdk/ndk/25.1.8937393/toolchains/llvm/prebuilt/darwin-x86_64/sysroot -DEXPORT=\"\" -DFIXED_POINT -DUSE_ALLOCA -DUSE_KISS_FFT -Daudio_engine_EXPORTS -I/Users/sv/android_projects/MIF/JEFF/rnnoise-hearing-example/app/src/main/cpp/../../../../oboe/include -I/Users/sv/android_projects/MIF/JEFF/rnnoise-hearing-example/oboe/include -g -DANDROID -fdata-sections -ffunction-sections -funwind-tables -fstack-protector-strong -no-canonical-prefixes -D_FORTIFY_SOURCE=2 -march=armv7-a -mthumb -Wformat -Werror=format-security   -O2 -g -DNDEBUG -fPIC   -UHAVE_CONFIG_H -o CMakeFiles/audio-engine.dir/analyzer/fft/FFT.cpp.o -c /Users/sv/android_projects/MIF/JEFF/rnnoise-hearing-example/app/src/main/cpp/analyzer/fft/FFT.cpp",
  "file": "/Users/sv/android_projects/MIF/JEFF/rnnoise-hearing-example/app/src/main/cpp/analyzer/fft/FFT.cpp"
},
{
  "directory": "/Users/sv/android_projects/MIF/JEFF/rnnoise-hearing-example/app/.cxx/RelWithDebInfo/4f20nz1l/armeabi-v7a",
  "command": "/Users/sv/Library/Android/sdk/ndk/25.1.8937393/toolchains/llvm/prebuilt/darwin-x86_64/bin/clang++ --target=armv7-none-linux-androideabi23 --sysroot=/Users/sv/Library/Android/sdk/ndk/25.1.8937393/toolchains/llvm/prebuilt/darwin-x86_64/sysroot -DEXPORT=\"\" -DFIXED_POINT -DUSE_ALLOCA -DUSE_KISS_FFT -Daudio_engine_EXPORTS -I/Users/sv/android_projects/MIF/JEFF/rnnoise-hearing-example/app/src/main/cpp/../../../../oboe/include -I/Users/sv/android_projects/MIF/JEFF/rnnoise-hearing-example/oboe/include -g -DANDROID -fdata-sections -ffunction-sections -funwind-tables -fstack-protector-strong -no-canonical-prefixes -D_FORTIFY_SOURCE=2 -march=armv7-a -mthumb -Wformat -Werror=format-security   -O2 -g -DNDEBUG -fPIC   -UHAVE_CONFIG_H -o CMakeFiles/audio-engine.dir/analyzer/Analyzer.cpp.o -c /Users/sv/android_projects/MIF/JEFF/rnnoise-hearing-example/app/src/main/cpp/analyzer/Analyzer.cpp",
  "file": "/Users/sv/android_projects/MIF/JEFF/rnnoise-hearing-example/app/src/main/cpp/analyzer/Analyzer.cpp"
},
{
  "directory": "/Users/sv/android_projects/MIF/JEFF/rnnoise-hearing-example/app/.cxx/RelWithDebInfo/4f20nz1l/armeabi-v7a",
  "command": "/Users/sv/Library/Android/sdk/ndk/25.1.8937393/toolchains/llvm/prebuilt/darwin-x86_64/bin/clang++ --target=armv7-none-linux-androideabi23 --sysroot=/Users/sv/Library/Android/sdk/ndk/25.1.8937393/toolchains/llvm/prebuilt/darwin-x86_64/sysroot -DEXPORT=\"\" -DFIXED_POINT -DUSE_ALLOCA -DUSE_KISS_FFT -Daudio_engine_EXPORTS -I/Users/sv/android_projects/MIF/JEFF/rnnoise-hearing-example/app/src/main/cpp/../../../../oboe/include -I/Users/sv/android_projects/MIF/JEFF/rnnoise-hearing-example/oboe/include -g -DANDROID -fdata-sections -ffunction-sections -funwind-tables -fstack-protector-strong -no-canonical-prefixes -D_FORTIFY_SOURCE=2 -march=armv7-a -mthumb -Wformat -Werror=format-security   -O2 -g -DNDEBUG -fPIC   -UHAVE_CONFIG_H -o CMakeFiles/audio-engine.dir/bandpass/mkfilter/complex.cpp.o -c /Users/sv/android_projects/MIF/JEFF/rnnoise-hearing-example/app/src/main/cpp/bandpass/mkfilter/complex.cpp",
  "file": "/Users/sv/android_projects/MIF/JEFF/rnnoise-hearing-example/app/src/main/cpp/bandpass/mkfilter/complex.cpp"
},
{
  "directory": "/Users/sv/android_projects/MIF/JEFF/rnnoise-hearing-example/app/.cxx/RelWithDebInfo/4f20nz1l/armeabi-v7a",
  "command": "/Users/sv/Library/Android/sdk/ndk/25.1.8937393/toolchains/llvm/prebuilt/darwin-x86_64/bin/clang++ --target=armv7-none-linux-androideabi23 --sysroot=/Users/sv/Library/Android/sdk/ndk/25.1.8937393/toolchains/llvm/prebuilt/darwin-x86_64/sysroot -DEXPORT=\"\" -DFIXED_POINT -DUSE_ALLOCA -DUSE_KISS_FFT -Daudio_engine_EXPORTS -I/Users/sv/android_projects/MIF/JEFF/rnnoise-hearing-example/app/src/main/cpp/../../../../oboe/include -I/Users/sv/android_projects/MIF/JEFF/rnnoise-hearing-example/oboe/include -g -DANDROID -fdata-sections -ffunction-sections -funwind-tables -fstack-protector-strong -no-canonical-prefixes -D_FORTIFY_SOURCE=2 -march=armv7-a -mthumb -Wformat -Werror=format-security   -O2 -g -DNDEBUG -fPIC   -UHAVE_CONFIG_H -o CMakeFiles/audio-engine.dir/bandpass/mkfilter/mkfilter.cpp.o -c /Users/sv/android_projects/MIF/JEFF/rnnoise-hearing-example/app/src/main/cpp/bandpass/mkfilter/mkfilter.cpp",
  "file": "/Users/sv/android_projects/MIF/JEFF/rnnoise-hearing-example/app/src/main/cpp/bandpass/mkfilter/mkfilter.cpp"
},
{
  "directory": "/Users/sv/android_projects/MIF/JEFF/rnnoise-hearing-example/app/.cxx/RelWithDebInfo/4f20nz1l/armeabi-v7a",
  "command": "/Users/sv/Library/Android/sdk/ndk/25.1.8937393/toolchains/llvm/prebuilt/darwin-x86_64/bin/clang++ --target=armv7-none-linux-androideabi23 --sysroot=/Users/sv/Library/Android/sdk/ndk/25.1.8937393/toolchains/llvm/prebuilt/darwin-x86_64/sysroot -DEXPORT=\"\" -DFIXED_POINT -DUSE_ALLOCA -DUSE_KISS_FFT -Daudio_engine_EXPORTS -I/Users/sv/android_projects/MIF/JEFF/rnnoise-hearing-example/app/src/main/cpp/../../../../oboe/include -I/Users/sv/android_projects/MIF/JEFF/rnnoise-hearing-example/oboe/include -g -DANDROID -fdata-sections -ffunction-sections -funwind-tables -fstack-protector-strong -no-canonical-prefixes -D_FORTIFY_SOURCE=2 -march=armv7-a -mthumb -Wformat -Werror=format-security   -O2 -g -DNDEBUG -fPIC   -UHAVE_CONFIG_H -o CMakeFiles/audio-engine.dir/bandpass/BandpassFilter.cpp.o -c /Users/sv/android_projects/MIF/JEFF/rnnoise-hearing-example/app/src/main/cpp/bandpass/BandpassFilter.cpp",
  "file": "/Users/sv/android_projects/MIF/JEFF/rnnoise-hearing-example/app/src/main/cpp/bandpass/BandpassFilter.cpp"
},
{
  "directory": "/Users/sv/android_projects/MIF/JEFF/rnnoise-hearing-example/app/.cxx/RelWithDebInfo/4f20nz1l/armeabi-v7a",
  "command": "/Users/sv/Library/Android/sdk/ndk/25.1.8937393/toolchains/llvm/prebuilt/darwin-x86_64/bin/clang++ --target=armv7-none-linux-androideabi23 --sysroot=/Users/sv/Library/Android/sdk/ndk/25.1.8937393/toolchains/llvm/prebuilt/darwin-x86_64/sysroot -DEXPORT=\"\" -DFIXED_POINT -DUSE_ALLOCA -DUSE_KISS_FFT -Daudio_engine_EXPORTS -I/Users/sv/android_projects/MIF/JEFF/rnnoise-hearing-example/app/src/main/cpp/../../../../oboe/include -I/Users/sv/android_projects/MIF/JEFF/rnnoise-hearing-example/oboe/include -g -DANDROID -fdata-sections -ffunction-sections -funwind-tables -fstack-protector-strong -no-canonical-prefixes -D_FORTIFY_SOURCE=2 -march=armv7-a -mthumb -Wformat -Werror=format-security   -O2 -g -DNDEBUG -fPIC   -UHAVE_CONFIG_H -o CMakeFiles/audio-engine.dir/FullDuplexStream.cpp.o -c /Users/sv/android_projects/MIF/JEFF/rnnoise-hearing-example/app/src/main/cpp/FullDuplexStream.cpp",
  "file": "/Users/sv/android_projects/MIF/JEFF/rnnoise-hearing-example/app/src/main/cpp/FullDuplexStream.cpp"
},
{
  "directory": "/Users/sv/android_projects/MIF/JEFF/rnnoise-hearing-example/app/.cxx/RelWithDebInfo/4f20nz1l/armeabi-v7a",
  "command": "/Users/sv/Library/Android/sdk/ndk/25.1.8937393/toolchains/llvm/prebuilt/darwin-x86_64/bin/clang++ --target=armv7-none-linux-androideabi23 --sysroot=/Users/sv/Library/Android/sdk/ndk/25.1.8937393/toolchains/llvm/prebuilt/darwin-x86_64/sysroot -DEXPORT=\"\" -DFIXED_POINT -DUSE_ALLOCA -DUSE_KISS_FFT -Daudio_engine_EXPORTS -I/Users/sv/android_projects/MIF/JEFF/rnnoise-hearing-example/app/src/main/cpp/../../../../oboe/include -I/Users/sv/android_projects/MIF/JEFF/rnnoise-hearing-example/oboe/include -g -DANDROID -fdata-sections -ffunction-sections -funwind-tables -fstack-protector-strong -no-canonical-prefixes -D_FORTIFY_SOURCE=2 -march=armv7-a -mthumb -Wformat -Werror=format-security   -O2 -g -DNDEBUG -fPIC   -UHAVE_CONFIG_H -o CMakeFiles/audio-engine.dir/LiveEffectEngine.cpp.o -c /Users/sv/android_projects/MIF/JEFF/rnnoise-hearing-example/app/src/main/cpp/LiveEffectEngine.cpp",
  "file": "/Users/sv/android_projects/MIF/JEFF/rnnoise-hearing-example/app/src/main/cpp/LiveEffectEngine.cpp"
},
{
  "directory": "/Users/sv/android_projects/MIF/JEFF/rnnoise-hearing-example/app/.cxx/RelWithDebInfo/4f20nz1l/armeabi-v7a",
  "command": "/Users/sv/Library/Android/sdk/ndk/25.1.8937393/toolchains/llvm/prebuilt/darwin-x86_64/bin/clang++ --target=armv7-none-linux-androideabi23 --sysroot=/Users/sv/Library/Android/sdk/ndk/25.1.8937393/toolchains/llvm/prebuilt/darwin-x86_64/sysroot -DEXPORT=\"\" -DFIXED_POINT -DUSE_ALLOCA -DUSE_KISS_FFT -Daudio_engine_EXPORTS -I/Users/sv/android_projects/MIF/JEFF/rnnoise-hearing-example/app/src/main/cpp/../../../../oboe/include -I/Users/sv/android_projects/MIF/JEFF/rnnoise-hearing-example/oboe/include -g -DANDROID -fdata-sections -ffunction-sections -funwind-tables -fstack-protector-strong -no-canonical-prefixes -D_FORTIFY_SOURCE=2 -march=armv7-a -mthumb -Wformat -Werror=format-security   -O2 -g -DNDEBUG -fPIC   -UHAVE_CONFIG_H -o CMakeFiles/audio-engine.dir/JniBridge.cpp.o -c /Users/sv/android_projects/MIF/JEFF/rnnoise-hearing-example/app/src/main/cpp/JniBridge.cpp",
  "file": "/Users/sv/android_projects/MIF/JEFF/rnnoise-hearing-example/app/src/main/cpp/JniBridge.cpp"
},
{
  "directory": "/Users/sv/android_projects/MIF/JEFF/rnnoise-hearing-example/app/.cxx/RelWithDebInfo/4f20nz1l/armeabi-v7a",
  "command": "/Users/sv/Library/Android/sdk/ndk/25.1.8937393/toolchains/llvm/prebuilt/darwin-x86_64/bin/clang++ --target=armv7-none-linux-androideabi23 --sysroot=/Users/sv/Library/Android/sdk/ndk/25.1.8937393/toolchains/llvm/prebuilt/darwin-x86_64/sysroot -DEXPORT=\"\" -DFIXED_POINT -DUSE_ALLOCA -DUSE_KISS_FFT -I/Users/sv/android_projects/MIF/JEFF/rnnoise-hearing-example/oboe/src -I/Users/sv/android_projects/MIF/JEFF/rnnoise-hearing-example/oboe/include -g -DANDROID -fdata-sections -ffunction-sections -funwind-tables -fstack-protector-strong -no-canonical-prefixes -D_FORTIFY_SOURCE=2 -march=armv7-a -mthumb -Wformat -Werror=format-security   -O2 -g -DNDEBUG -fPIC   -UHAVE_CONFIG_H -std=c++14 -Wall -Wextra-semi -Wshadow -Wshadow-field -Ofast -o oboe/CMakeFiles/oboe.dir/src/aaudio/AAudioLoader.cpp.o -c /Users/sv/android_projects/MIF/JEFF/rnnoise-hearing-example/oboe/src/aaudio/AAudioLoader.cpp",
  "file": "/Users/sv/android_projects/MIF/JEFF/rnnoise-hearing-example/oboe/src/aaudio/AAudioLoader.cpp"
},
{
  "directory": "/Users/sv/android_projects/MIF/JEFF/rnnoise-hearing-example/app/.cxx/RelWithDebInfo/4f20nz1l/armeabi-v7a",
  "command": "/Users/sv/Library/Android/sdk/ndk/25.1.8937393/toolchains/llvm/prebuilt/darwin-x86_64/bin/clang++ --target=armv7-none-linux-androideabi23 --sysroot=/Users/sv/Library/Android/sdk/ndk/25.1.8937393/toolchains/llvm/prebuilt/darwin-x86_64/sysroot -DEXPORT=\"\" -DFIXED_POINT -DUSE_ALLOCA -DUSE_KISS_FFT -I/Users/sv/android_projects/MIF/JEFF/rnnoise-hearing-example/oboe/src -I/Users/sv/android_projects/MIF/JEFF/rnnoise-hearing-example/oboe/include -g -DANDROID -fdata-sections -ffunction-sections -funwind-tables -fstack-protector-strong -no-canonical-prefixes -D_FORTIFY_SOURCE=2 -march=armv7-a -mthumb -Wformat -Werror=format-security   -O2 -g -DNDEBUG -fPIC   -UHAVE_CONFIG_H -std=c++14 -Wall -Wextra-semi -Wshadow -Wshadow-field -Ofast -o oboe/CMakeFiles/oboe.dir/src/aaudio/AudioStreamAAudio.cpp.o -c /Users/sv/android_projects/MIF/JEFF/rnnoise-hearing-example/oboe/src/aaudio/AudioStreamAAudio.cpp",
  "file": "/Users/sv/android_projects/MIF/JEFF/rnnoise-hearing-example/oboe/src/aaudio/AudioStreamAAudio.cpp"
},
{
  "directory": "/Users/sv/android_projects/MIF/JEFF/rnnoise-hearing-example/app/.cxx/RelWithDebInfo/4f20nz1l/armeabi-v7a",
  "command": "/Users/sv/Library/Android/sdk/ndk/25.1.8937393/toolchains/llvm/prebuilt/darwin-x86_64/bin/clang++ --target=armv7-none-linux-androideabi23 --sysroot=/Users/sv/Library/Android/sdk/ndk/25.1.8937393/toolchains/llvm/prebuilt/darwin-x86_64/sysroot -DEXPORT=\"\" -DFIXED_POINT -DUSE_ALLOCA -DUSE_KISS_FFT -I/Users/sv/android_projects/MIF/JEFF/rnnoise-hearing-example/oboe/src -I/Users/sv/android_projects/MIF/JEFF/rnnoise-hearing-example/oboe/include -g -DANDROID -fdata-sections -ffunction-sections -funwind-tables -fstack-protector-strong -no-canonical-prefixes -D_FORTIFY_SOURCE=2 -march=armv7-a -mthumb -Wformat -Werror=format-security   -O2 -g -DNDEBUG -fPIC   -UHAVE_CONFIG_H -std=c++14 -Wall -Wextra-semi -Wshadow -Wshadow-field -Ofast -o oboe/CMakeFiles/oboe.dir/src/common/AudioSourceCaller.cpp.o -c /Users/sv/android_projects/MIF/JEFF/rnnoise-hearing-example/oboe/src/common/AudioSourceCaller.cpp",
  "file": "/Users/sv/android_projects/MIF/JEFF/rnnoise-hearing-example/oboe/src/common/AudioSourceCaller.cpp"
},
{
  "directory": "/Users/sv/android_projects/MIF/JEFF/rnnoise-hearing-example/app/.cxx/RelWithDebInfo/4f20nz1l/armeabi-v7a",
  "command": "/Users/sv/Library/Android/sdk/ndk/25.1.8937393/toolchains/llvm/prebuilt/darwin-x86_64/bin/clang++ --target=armv7-none-linux-androideabi23 --sysroot=/Users/sv/Library/Android/sdk/ndk/25.1.8937393/toolchains/llvm/prebuilt/darwin-x86_64/sysroot -DEXPORT=\"\" -DFIXED_POINT -DUSE_ALLOCA -DUSE_KISS_FFT -I/Users/sv/android_projects/MIF/JEFF/rnnoise-hearing-example/oboe/src -I/Users/sv/android_projects/MIF/JEFF/rnnoise-hearing-example/oboe/include -g -DANDROID -fdata-sections -ffunction-sections -funwind-tables -fstack-protector-strong -no-canonical-prefixes -D_FORTIFY_SOURCE=2 -march=armv7-a -mthumb -Wformat -Werror=format-security   -O2 -g -DNDEBUG -fPIC   -UHAVE_CONFIG_H -std=c++14 -Wall -Wextra-semi -Wshadow -Wshadow-field -Ofast -o oboe/CMakeFiles/oboe.dir/src/common/AudioStream.cpp.o -c /Users/sv/android_projects/MIF/JEFF/rnnoise-hearing-example/oboe/src/common/AudioStream.cpp",
  "file": "/Users/sv/android_projects/MIF/JEFF/rnnoise-hearing-example/oboe/src/common/AudioStream.cpp"
},
{
  "directory": "/Users/sv/android_projects/MIF/JEFF/rnnoise-hearing-example/app/.cxx/RelWithDebInfo/4f20nz1l/armeabi-v7a",
  "command": "/Users/sv/Library/Android/sdk/ndk/25.1.8937393/toolchains/llvm/prebuilt/darwin-x86_64/bin/clang++ --target=armv7-none-linux-androideabi23 --sysroot=/Users/sv/Library/Android/sdk/ndk/25.1.8937393/toolchains/llvm/prebuilt/darwin-x86_64/sysroot -DEXPORT=\"\" -DFIXED_POINT -DUSE_ALLOCA -DUSE_KISS_FFT -I/Users/sv/android_projects/MIF/JEFF/rnnoise-hearing-example/oboe/src -I/Users/sv/android_projects/MIF/JEFF/rnnoise-hearing-example/oboe/include -g -DANDROID -fdata-sections -ffunction-sections -funwind-tables -fstack-protector-strong -no-canonical-prefixes -D_FORTIFY_SOURCE=2 -march=armv7-a -mthumb -Wformat -Werror=format-security   -O2 -g -DNDEBUG -fPIC   -UHAVE_CONFIG_H -std=c++14 -Wall -Wextra-semi -Wshadow -Wshadow-field -Ofast -o oboe/CMakeFiles/oboe.dir/src/common/AudioStreamBuilder.cpp.o -c /Users/sv/android_projects/MIF/JEFF/rnnoise-hearing-example/oboe/src/common/AudioStreamBuilder.cpp",
  "file": "/Users/sv/android_projects/MIF/JEFF/rnnoise-hearing-example/oboe/src/common/AudioStreamBuilder.cpp"
},
{
  "directory": "/Users/sv/android_projects/MIF/JEFF/rnnoise-hearing-example/app/.cxx/RelWithDebInfo/4f20nz1l/armeabi-v7a",
  "command": "/Users/sv/Library/Android/sdk/ndk/25.1.8937393/toolchains/llvm/prebuilt/darwin-x86_64/bin/clang++ --target=armv7-none-linux-androideabi23 --sysroot=/Users/sv/Library/Android/sdk/ndk/25.1.8937393/toolchains/llvm/prebuilt/darwin-x86_64/sysroot -DEXPORT=\"\" -DFIXED_POINT -DUSE_ALLOCA -DUSE_KISS_FFT -I/Users/sv/android_projects/MIF/JEFF/rnnoise-hearing-example/oboe/src -I/Users/sv/android_projects/MIF/JEFF/rnnoise-hearing-example/oboe/include -g -DANDROID -fdata-sections -ffunction-sections -funwind-tables -fstack-protector-strong -no-canonical-prefixes -D_FORTIFY_SOURCE=2 -march=armv7-a -mthumb -Wformat -Werror=format-security   -O2 -g -DNDEBUG -fPIC   -UHAVE_CONFIG_H -std=c++14 -Wall -Wextra-semi -Wshadow -Wshadow-field -Ofast -o oboe/CMakeFiles/oboe.dir/src/common/DataConversionFlowGraph.cpp.o -c /Users/sv/android_projects/MIF/JEFF/rnnoise-hearing-example/oboe/src/common/DataConversionFlowGraph.cpp",
  "file": "/Users/sv/android_projects/MIF/JEFF/rnnoise-hearing-example/oboe/src/common/DataConversionFlowGraph.cpp"
},
{
  "directory": "/Users/sv/android_projects/MIF/JEFF/rnnoise-hearing-example/app/.cxx/RelWithDebInfo/4f20nz1l/armeabi-v7a",
  "command": "/Users/sv/Library/Android/sdk/ndk/25.1.8937393/toolchains/llvm/prebuilt/darwin-x86_64/bin/clang++ --target=armv7-none-linux-androideabi23 --sysroot=/Users/sv/Library/Android/sdk/ndk/25.1.8937393/toolchains/llvm/prebuilt/darwin-x86_64/sysroot -DEXPORT=\"\" -DFIXED_POINT -DUSE_ALLOCA -DUSE_KISS_FFT -I/Users/sv/android_projects/MIF/JEFF/rnnoise-hearing-example/oboe/src -I/Users/sv/android_projects/MIF/JEFF/rnnoise-hearing-example/oboe/include -g -DANDROID -fdata-sections -ffunction-sections -funwind-tables -fstack-protector-strong -no-canonical-prefixes -D_FORTIFY_SOURCE=2 -march=armv7-a -mthumb -Wformat -Werror=format-security   -O2 -g -DNDEBUG -fPIC   -UHAVE_CONFIG_H -std=c++14 -Wall -Wextra-semi -Wshadow -Wshadow-field -Ofast -o oboe/CMakeFiles/oboe.dir/src/common/FilterAudioStream.cpp.o -c /Users/sv/android_projects/MIF/JEFF/rnnoise-hearing-example/oboe/src/common/FilterAudioStream.cpp",
  "file": "/Users/sv/android_projects/MIF/JEFF/rnnoise-hearing-example/oboe/src/common/FilterAudioStream.cpp"
},
{
  "directory": "/Users/sv/android_projects/MIF/JEFF/rnnoise-hearing-example/app/.cxx/RelWithDebInfo/4f20nz1l/armeabi-v7a",
  "command": "/Users/sv/Library/Android/sdk/ndk/25.1.8937393/toolchains/llvm/prebuilt/darwin-x86_64/bin/clang++ --target=armv7-none-linux-androideabi23 --sysroot=/Users/sv/Library/Android/sdk/ndk/25.1.8937393/toolchains/llvm/prebuilt/darwin-x86_64/sysroot -DEXPORT=\"\" -DFIXED_POINT -DUSE_ALLOCA -DUSE_KISS_FFT -I/Users/sv/android_projects/MIF/JEFF/rnnoise-hearing-example/oboe/src -I/Users/sv/android_projects/MIF/JEFF/rnnoise-hearing-example/oboe/include -g -DANDROID -fdata-sections -ffunction-sections -funwind-tables -fstack-protector-strong -no-canonical-prefixes -D_FORTIFY_SOURCE=2 -march=armv7-a -mthumb -Wformat -Werror=format-security   -O2 -g -DNDEBUG -fPIC   -UHAVE_CONFIG_H -std=c++14 -Wall -Wextra-semi -Wshadow -Wshadow-field -Ofast -o oboe/CMakeFiles/oboe.dir/src/common/FixedBlockAdapter.cpp.o -c /Users/sv/android_projects/MIF/JEFF/rnnoise-hearing-example/oboe/src/common/FixedBlockAdapter.cpp",
  "file": "/Users/sv/android_projects/MIF/JEFF/rnnoise-hearing-example/oboe/src/common/FixedBlockAdapter.cpp"
},
{
  "directory": "/Users/sv/android_projects/MIF/JEFF/rnnoise-hearing-example/app/.cxx/RelWithDebInfo/4f20nz1l/armeabi-v7a",
  "command": "/Users/sv/Library/Android/sdk/ndk/25.1.8937393/toolchains/llvm/prebuilt/darwin-x86_64/bin/clang++ --target=armv7-none-linux-androideabi23 --sysroot=/Users/sv/Library/Android/sdk/ndk/25.1.8937393/toolchains/llvm/prebuilt/darwin-x86_64/sysroot -DEXPORT=\"\" -DFIXED_POINT -DUSE_ALLOCA -DUSE_KISS_FFT -I/Users/sv/android_projects/MIF/JEFF/rnnoise-hearing-example/oboe/src -I/Users/sv/android_projects/MIF/JEFF/rnnoise-hearing-example/oboe/include -g -DANDROID -fdata-sections -ffunction-sections -funwind-tables -fstack-protector-strong -no-canonical-prefixes -D_FORTIFY_SOURCE=2 -march=armv7-a -mthumb -Wformat -Werror=format-security   -O2 -g -DNDEBUG -fPIC   -UHAVE_CONFIG_H -std=c++14 -Wall -Wextra-semi -Wshadow -Wshadow-field -Ofast -o oboe/CMakeFiles/oboe.dir/src/common/FixedBlockReader.cpp.o -c /Users/sv/android_projects/MIF/JEFF/rnnoise-hearing-example/oboe/src/common/FixedBlockReader.cpp",
  "file": "/Users/sv/android_projects/MIF/JEFF/rnnoise-hearing-example/oboe/src/common/FixedBlockReader.cpp"
},
{
  "directory": "/Users/sv/android_projects/MIF/JEFF/rnnoise-hearing-example/app/.cxx/RelWithDebInfo/4f20nz1l/armeabi-v7a",
  "command": "/Users/sv/Library/Android/sdk/ndk/25.1.8937393/toolchains/llvm/prebuilt/darwin-x86_64/bin/clang++ --target=armv7-none-linux-androideabi23 --sysroot=/Users/sv/Library/Android/sdk/ndk/25.1.8937393/toolchains/llvm/prebuilt/darwin-x86_64/sysroot -DEXPORT=\"\" -DFIXED_POINT -DUSE_ALLOCA -DUSE_KISS_FFT -I/Users/sv/android_projects/MIF/JEFF/rnnoise-hearing-example/oboe/src -I/Users/sv/android_projects/MIF/JEFF/rnnoise-hearing-example/oboe/include -g -DANDROID -fdata-sections -ffunction-sections -funwind-tables -fstack-protector-strong -no-canonical-prefixes -D_FORTIFY_SOURCE=2 -march=armv7-a -mthumb -Wformat -Werror=format-security   -O2 -g -DNDEBUG -fPIC   -UHAVE_CONFIG_H -std=c++14 -Wall -Wextra-semi -Wshadow -Wshadow-field -Ofast -o oboe/CMakeFiles/oboe.dir/src/common/FixedBlockWriter.cpp.o -c /Users/sv/android_projects/MIF/JEFF/rnnoise-hearing-example/oboe/src/common/FixedBlockWriter.cpp",
  "file": "/Users/sv/android_projects/MIF/JEFF/rnnoise-hearing-example/oboe/src/common/FixedBlockWriter.cpp"
},
{
  "directory": "/Users/sv/android_projects/MIF/JEFF/rnnoise-hearing-example/app/.cxx/RelWithDebInfo/4f20nz1l/armeabi-v7a",
  "command": "/Users/sv/Library/Android/sdk/ndk/25.1.8937393/toolchains/llvm/prebuilt/darwin-x86_64/bin/clang++ --target=armv7-none-linux-androideabi23 --sysroot=/Users/sv/Library/Android/sdk/ndk/25.1.8937393/toolchains/llvm/prebuilt/darwin-x86_64/sysroot -DEXPORT=\"\" -DFIXED_POINT -DUSE_ALLOCA -DUSE_KISS_FFT -I/Users/sv/android_projects/MIF/JEFF/rnnoise-hearing-example/oboe/src -I/Users/sv/android_projects/MIF/JEFF/rnnoise-hearing-example/oboe/include -g -DANDROID -fdata-sections -ffunction-sections -funwind-tables -fstack-protector-strong -no-canonical-prefixes -D_FORTIFY_SOURCE=2 -march=armv7-a -mthumb -Wformat -Werror=format-security   -O2 -g -DNDEBUG -fPIC   -UHAVE_CONFIG_H -std=c++14 -Wall -Wextra-semi -Wshadow -Wshadow-field -Ofast -o oboe/CMakeFiles/oboe.dir/src/common/LatencyTuner.cpp.o -c /Users/sv/android_projects/MIF/JEFF/rnnoise-hearing-example/oboe/src/common/LatencyTuner.cpp",
  "file": "/Users/sv/android_projects/MIF/JEFF/rnnoise-hearing-example/oboe/src/common/LatencyTuner.cpp"
},
{
  "directory": "/Users/sv/android_projects/MIF/JEFF/rnnoise-hearing-example/app/.cxx/RelWithDebInfo/4f20nz1l/armeabi-v7a",
  "command": "/Users/sv/Library/Android/sdk/ndk/25.1.8937393/toolchains/llvm/prebuilt/darwin-x86_64/bin/clang++ --target=armv7-none-linux-androideabi23 --sysroot=/Users/sv/Library/Android/sdk/ndk/25.1.8937393/toolchains/llvm/prebuilt/darwin-x86_64/sysroot -DEXPORT=\"\" -DFIXED_POINT -DUSE_ALLOCA -DUSE_KISS_FFT -I/Users/sv/android_projects/MIF/JEFF/rnnoise-hearing-example/oboe/src -I/Users/sv/android_projects/MIF/JEFF/rnnoise-hearing-example/oboe/include -g -DANDROID -fdata-sections -ffunction-sections -funwind-tables -fstack-protector-strong -no-canonical-prefixes -D_FORTIFY_SOURCE=2 -march=armv7-a -mthumb -Wformat -Werror=format-security   -O2 -g -DNDEBUG -fPIC   -UHAVE_CONFIG_H -std=c++14 -Wall -Wextra-semi -Wshadow -Wshadow-field -Ofast -o oboe/CMakeFiles/oboe.dir/src/common/SourceFloatCaller.cpp.o -c /Users/sv/android_projects/MIF/JEFF/rnnoise-hearing-example/oboe/src/common/SourceFloatCaller.cpp",
  "file": "/Users/sv/android_projects/MIF/JEFF/rnnoise-hearing-example/oboe/src/common/SourceFloatCaller.cpp"
},
{
  "directory": "/Users/sv/android_projects/MIF/JEFF/rnnoise-hearing-example/app/.cxx/RelWithDebInfo/4f20nz1l/armeabi-v7a",
  "command": "/Users/sv/Library/Android/sdk/ndk/25.1.8937393/toolchains/llvm/prebuilt/darwin-x86_64/bin/clang++ --target=armv7-none-linux-androideabi23 --sysroot=/Users/sv/Library/Android/sdk/ndk/25.1.8937393/toolchains/llvm/prebuilt/darwin-x86_64/sysroot -DEXPORT=\"\" -DFIXED_POINT -DUSE_ALLOCA -DUSE_KISS_FFT -I/Users/sv/android_projects/MIF/JEFF/rnnoise-hearing-example/oboe/src -I/Users/sv/android_projects/MIF/JEFF/rnnoise-hearing-example/oboe/include -g -DANDROID -fdata-sections -ffunction-sections -funwind-tables -fstack-protector-strong -no-canonical-prefixes -D_FORTIFY_SOURCE=2 -march=armv7-a -mthumb -Wformat -Werror=format-security   -O2 -g -DNDEBUG -fPIC   -UHAVE_CONFIG_H -std=c++14 -Wall -Wextra-semi -Wshadow -Wshadow-field -Ofast -o oboe/CMakeFiles/oboe.dir/src/common/SourceI16Caller.cpp.o -c /Users/sv/android_projects/MIF/JEFF/rnnoise-hearing-example/oboe/src/common/SourceI16Caller.cpp",
  "file": "/Users/sv/android_projects/MIF/JEFF/rnnoise-hearing-example/oboe/src/common/SourceI16Caller.cpp"
},
{
  "directory": "/Users/sv/android_projects/MIF/JEFF/rnnoise-hearing-example/app/.cxx/RelWithDebInfo/4f20nz1l/armeabi-v7a",
  "command": "/Users/sv/Library/Android/sdk/ndk/25.1.8937393/toolchains/llvm/prebuilt/darwin-x86_64/bin/clang++ --target=armv7-none-linux-androideabi23 --sysroot=/Users/sv/Library/Android/sdk/ndk/25.1.8937393/toolchains/llvm/prebuilt/darwin-x86_64/sysroot -DEXPORT=\"\" -DFIXED_POINT -DUSE_ALLOCA -DUSE_KISS_FFT -I/Users/sv/android_projects/MIF/JEFF/rnnoise-hearing-example/oboe/src -I/Users/sv/android_projects/MIF/JEFF/rnnoise-hearing-example/oboe/include -g -DANDROID -fdata-sections -ffunction-sections -funwind-tables -fstack-protector-strong -no-canonical-prefixes -D_FORTIFY_SOURCE=2 -march=armv7-a -mthumb -Wformat -Werror=format-security   -O2 -g -DNDEBUG -fPIC   -UHAVE_CONFIG_H -std=c++14 -Wall -Wextra-semi -Wshadow -Wshadow-field -Ofast -o oboe/CMakeFiles/oboe.dir/src/common/Utilities.cpp.o -c /Users/sv/android_projects/MIF/JEFF/rnnoise-hearing-example/oboe/src/common/Utilities.cpp",
  "file": "/Users/sv/android_projects/MIF/JEFF/rnnoise-hearing-example/oboe/src/common/Utilities.cpp"
},
{
  "directory": "/Users/sv/android_projects/MIF/JEFF/rnnoise-hearing-example/app/.cxx/RelWithDebInfo/4f20nz1l/armeabi-v7a",
  "command": "/Users/sv/Library/Android/sdk/ndk/25.1.8937393/toolchains/llvm/prebuilt/darwin-x86_64/bin/clang++ --target=armv7-none-linux-androideabi23 --sysroot=/Users/sv/Library/Android/sdk/ndk/25.1.8937393/toolchains/llvm/prebuilt/darwin-x86_64/sysroot -DEXPORT=\"\" -DFIXED_POINT -DUSE_ALLOCA -DUSE_KISS_FFT -I/Users/sv/android_projects/MIF/JEFF/rnnoise-hearing-example/oboe/src -I/Users/sv/android_projects/MIF/JEFF/rnnoise-hearing-example/oboe/include -g -DANDROID -fdata-sections -ffunction-sections -funwind-tables -fstack-protector-strong -no-canonical-prefixes -D_FORTIFY_SOURCE=2 -march=armv7-a -mthumb -Wformat -Werror=format-security   -O2 -g -DNDEBUG -fPIC   -UHAVE_CONFIG_H -std=c++14 -Wall -Wextra-semi -Wshadow -Wshadow-field -Ofast -o oboe/CMakeFiles/oboe.dir/src/common/QuirksManager.cpp.o -c /Users/sv/android_projects/MIF/JEFF/rnnoise-hearing-example/oboe/src/common/QuirksManager.cpp",
  "file": "/Users/sv/android_projects/MIF/JEFF/rnnoise-hearing-example/oboe/src/common/QuirksManager.cpp"
},
{
  "directory": "/Users/sv/android_projects/MIF/JEFF/rnnoise-hearing-example/app/.cxx/RelWithDebInfo/4f20nz1l/armeabi-v7a",
  "command": "/Users/sv/Library/Android/sdk/ndk/25.1.8937393/toolchains/llvm/prebuilt/darwin-x86_64/bin/clang++ --target=armv7-none-linux-androideabi23 --sysroot=/Users/sv/Library/Android/sdk/ndk/25.1.8937393/toolchains/llvm/prebuilt/darwin-x86_64/sysroot -DEXPORT=\"\" -DFIXED_POINT -DUSE_ALLOCA -DUSE_KISS_FFT -I/Users/sv/android_projects/MIF/JEFF/rnnoise-hearing-example/oboe/src -I/Users/sv/android_projects/MIF/JEFF/rnnoise-hearing-example/oboe/include -g -DANDROID -fdata-sections -ffunction-sections -funwind-tables -fstack-protector-strong -no-canonical-prefixes -D_FORTIFY_SOURCE=2 -march=armv7-a -mthumb -Wformat -Werror=format-security   -O2 -g -DNDEBUG -fPIC   -UHAVE_CONFIG_H -std=c++14 -Wall -Wextra-semi -Wshadow -Wshadow-field -Ofast -o oboe/CMakeFiles/oboe.dir/src/fifo/FifoBuffer.cpp.o -c /Users/sv/android_projects/MIF/JEFF/rnnoise-hearing-example/oboe/src/fifo/FifoBuffer.cpp",
  "file": "/Users/sv/android_projects/MIF/JEFF/rnnoise-hearing-example/oboe/src/fifo/FifoBuffer.cpp"
},
{
  "directory": "/Users/sv/android_projects/MIF/JEFF/rnnoise-hearing-example/app/.cxx/RelWithDebInfo/4f20nz1l/armeabi-v7a",
  "command": "/Users/sv/Library/Android/sdk/ndk/25.1.8937393/toolchains/llvm/prebuilt/darwin-x86_64/bin/clang++ --target=armv7-none-linux-androideabi23 --sysroot=/Users/sv/Library/Android/sdk/ndk/25.1.8937393/toolchains/llvm/prebuilt/darwin-x86_64/sysroot -DEXPORT=\"\" -DFIXED_POINT -DUSE_ALLOCA -DUSE_KISS_FFT -I/Users/sv/android_projects/MIF/JEFF/rnnoise-hearing-example/oboe/src -I/Users/sv/android_projects/MIF/JEFF/rnnoise-hearing-example/oboe/include -g -DANDROID -fdata-sections -ffunction-sections -funwind-tables -fstack-protector-strong -no-canonical-prefixes -D_FORTIFY_SOURCE=2 -march=armv7-a -mthumb -Wformat -Werror=format-security   -O2 -g -DNDEBUG -fPIC   -UHAVE_CONFIG_H -std=c++14 -Wall -Wextra-semi -Wshadow -Wshadow-field -Ofast -o oboe/CMakeFiles/oboe.dir/src/fifo/FifoController.cpp.o -c /Users/sv/android_projects/MIF/JEFF/rnnoise-hearing-example/oboe/src/fifo/FifoController.cpp",
  "file": "/Users/sv/android_projects/MIF/JEFF/rnnoise-hearing-example/oboe/src/fifo/FifoController.cpp"
},
{
  "directory": "/Users/sv/android_projects/MIF/JEFF/rnnoise-hearing-example/app/.cxx/RelWithDebInfo/4f20nz1l/armeabi-v7a",
  "command": "/Users/sv/Library/Android/sdk/ndk/25.1.8937393/toolchains/llvm/prebuilt/darwin-x86_64/bin/clang++ --target=armv7-none-linux-androideabi23 --sysroot=/Users/sv/Library/Android/sdk/ndk/25.1.8937393/toolchains/llvm/prebuilt/darwin-x86_64/sysroot -DEXPORT=\"\" -DFIXED_POINT -DUSE_ALLOCA -DUSE_KISS_FFT -I/Users/sv/android_projects/MIF/JEFF/rnnoise-hearing-example/oboe/src -I/Users/sv/android_projects/MIF/JEFF/rnnoise-hearing-example/oboe/include -g -DANDROID -fdata-sections -ffunction-sections -funwind-tables -fstack-protector-strong -no-canonical-prefixes -D_FORTIFY_SOURCE=2 -march=armv7-a -mthumb -Wformat -Werror=format-security   -O2 -g -DNDEBUG -fPIC   -UHAVE_CONFIG_H -std=c++14 -Wall -Wextra-semi -Wshadow -Wshadow-field -Ofast -o oboe/CMakeFiles/oboe.dir/src/fifo/FifoControllerBase.cpp.o -c /Users/sv/android_projects/MIF/JEFF/rnnoise-hearing-example/oboe/src/fifo/FifoControllerBase.cpp",
  "file": "/Users/sv/android_projects/MIF/JEFF/rnnoise-hearing-example/oboe/src/fifo/FifoControllerBase.cpp"
},
{
  "directory": "/Users/sv/android_projects/MIF/JEFF/rnnoise-hearing-example/app/.cxx/RelWithDebInfo/4f20nz1l/armeabi-v7a",
  "command": "/Users/sv/Library/Android/sdk/ndk/25.1.8937393/toolchains/llvm/prebuilt/darwin-x86_64/bin/clang++ --target=armv7-none-linux-androideabi23 --sysroot=/Users/sv/Library/Android/sdk/ndk/25.1.8937393/toolchains/llvm/prebuilt/darwin-x86_64/sysroot -DEXPORT=\"\" -DFIXED_POINT -DUSE_ALLOCA -DUSE_KISS_FFT -I/Users/sv/android_projects/MIF/JEFF/rnnoise-hearing-example/oboe/src -I/Users/sv/android_projects/MIF/JEFF/rnnoise-hearing-example/oboe/include -g -DANDROID -fdata-sections -ffunction-sections -funwind-tables -fstack-protector-strong -no-canonical-prefixes -D_FORTIFY_SOURCE=2 -march=armv7-a -mthumb -Wformat -Werror=format-security   -O2 -g -DNDEBUG -fPIC   -UHAVE_CONFIG_H -std=c++14 -Wall -Wextra-semi -Wshadow -Wshadow-field -Ofast -o oboe/CMakeFiles/oboe.dir/src/fifo/FifoControllerIndirect.cpp.o -c /Users/sv/android_projects/MIF/JEFF/rnnoise-hearing-example/oboe/src/fifo/FifoControllerIndirect.cpp",
  "file": "/Users/sv/android_projects/MIF/JEFF/rnnoise-hearing-example/oboe/src/fifo/FifoControllerIndirect.cpp"
},
{
  "directory": "/Users/sv/android_projects/MIF/JEFF/rnnoise-hearing-example/app/.cxx/RelWithDebInfo/4f20nz1l/armeabi-v7a",
  "command": "/Users/sv/Library/Android/sdk/ndk/25.1.8937393/toolchains/llvm/prebuilt/darwin-x86_64/bin/clang++ --target=armv7-none-linux-androideabi23 --sysroot=/Users/sv/Library/Android/sdk/ndk/25.1.8937393/toolchains/llvm/prebuilt/darwin-x86_64/sysroot -DEXPORT=\"\" -DFIXED_POINT -DUSE_ALLOCA -DUSE_KISS_FFT -I/Users/sv/android_projects/MIF/JEFF/rnnoise-hearing-example/oboe/src -I/Users/sv/android_projects/MIF/JEFF/rnnoise-hearing-example/oboe/include -g -DANDROID -fdata-sections -ffunction-sections -funwind-tables -fstack-protector-strong -no-canonical-prefixes -D_FORTIFY_SOURCE=2 -march=armv7-a -mthumb -Wformat -Werror=format-security   -O2 -g -DNDEBUG -fPIC   -UHAVE_CONFIG_H -std=c++14 -Wall -Wextra-semi -Wshadow -Wshadow-field -Ofast -o oboe/CMakeFiles/oboe.dir/src/flowgraph/FlowGraphNode.cpp.o -c /Users/sv/android_projects/MIF/JEFF/rnnoise-hearing-example/oboe/src/flowgraph/FlowGraphNode.cpp",
  "file": "/Users/sv/android_projects/MIF/JEFF/rnnoise-hearing-example/oboe/src/flowgraph/FlowGraphNode.cpp"
},
{
  "directory": "/Users/sv/android_projects/MIF/JEFF/rnnoise-hearing-example/app/.cxx/RelWithDebInfo/4f20nz1l/armeabi-v7a",
  "command": "/Users/sv/Library/Android/sdk/ndk/25.1.8937393/toolchains/llvm/prebuilt/darwin-x86_64/bin/clang++ --target=armv7-none-linux-androideabi23 --sysroot=/Users/sv/Library/Android/sdk/ndk/25.1.8937393/toolchains/llvm/prebuilt/darwin-x86_64/sysroot -DEXPORT=\"\" -DFIXED_POINT -DUSE_ALLOCA -DUSE_KISS_FFT -I/Users/sv/android_projects/MIF/JEFF/rnnoise-hearing-example/oboe/src -I/Users/sv/android_projects/MIF/JEFF/rnnoise-hearing-example/oboe/include -g -DANDROID -fdata-sections -ffunction-sections -funwind-tables -fstack-protector-strong -no-canonical-prefixes -D_FORTIFY_SOURCE=2 -march=armv7-a -mthumb -Wformat -Werror=format-security   -O2 -g -DNDEBUG -fPIC   -UHAVE_CONFIG_H -std=c++14 -Wall -Wextra-semi -Wshadow -Wshadow-field -Ofast -o oboe/CMakeFiles/oboe.dir/src/flowgraph/ChannelCountConverter.cpp.o -c /Users/sv/android_projects/MIF/JEFF/rnnoise-hearing-example/oboe/src/flowgraph/ChannelCountConverter.cpp",
  "file": "/Users/sv/android_projects/MIF/JEFF/rnnoise-hearing-example/oboe/src/flowgraph/ChannelCountConverter.cpp"
},
{
  "directory": "/Users/sv/android_projects/MIF/JEFF/rnnoise-hearing-example/app/.cxx/RelWithDebInfo/4f20nz1l/armeabi-v7a",
  "command": "/Users/sv/Library/Android/sdk/ndk/25.1.8937393/toolchains/llvm/prebuilt/darwin-x86_64/bin/clang++ --target=armv7-none-linux-androideabi23 --sysroot=/Users/sv/Library/Android/sdk/ndk/25.1.8937393/toolchains/llvm/prebuilt/darwin-x86_64/sysroot -DEXPORT=\"\" -DFIXED_POINT -DUSE_ALLOCA -DUSE_KISS_FFT -I/Users/sv/android_projects/MIF/JEFF/rnnoise-hearing-example/oboe/src -I/Users/sv/android_projects/MIF/JEFF/rnnoise-hearing-example/oboe/include -g -DANDROID -fdata-sections -ffunction-sections -funwind-tables -fstack-protector-strong -no-canonical-prefixes -D_FORTIFY_SOURCE=2 -march=armv7-a -mthumb -Wformat -Werror=format-security   -O2 -g -DNDEBUG -fPIC   -UHAVE_CONFIG_H -std=c++14 -Wall -Wextra-semi -Wshadow -Wshadow-field -Ofast -o oboe/CMakeFiles/oboe.dir/src/flowgraph/ClipToRange.cpp.o -c /Users/sv/android_projects/MIF/JEFF/rnnoise-hearing-example/oboe/src/flowgraph/ClipToRange.cpp",
  "file": "/Users/sv/android_projects/MIF/JEFF/rnnoise-hearing-example/oboe/src/flowgraph/ClipToRange.cpp"
},
{
  "directory": "/Users/sv/android_projects/MIF/JEFF/rnnoise-hearing-example/app/.cxx/RelWithDebInfo/4f20nz1l/armeabi-v7a",
  "command": "/Users/sv/Library/Android/sdk/ndk/25.1.8937393/toolchains/llvm/prebuilt/darwin-x86_64/bin/clang++ --target=armv7-none-linux-androideabi23 --sysroot=/Users/sv/Library/Android/sdk/ndk/25.1.8937393/toolchains/llvm/prebuilt/darwin-x86_64/sysroot -DEXPORT=\"\" -DFIXED_POINT -DUSE_ALLOCA -DUSE_KISS_FFT -I/Users/sv/android_projects/MIF/JEFF/rnnoise-hearing-example/oboe/src -I/Users/sv/android_projects/MIF/JEFF/rnnoise-hearing-example/oboe/include -g -DANDROID -fdata-sections -ffunction-sections -funwind-tables -fstack-protector-strong -no-canonical-prefixes -D_FORTIFY_SOURCE=2 -march=armv7-a -mthumb -Wformat -Werror=format-security   -O2 -g -DNDEBUG -fPIC   -UHAVE_CONFIG_H -std=c++14 -Wall -Wextra-semi -Wshadow -Wshadow-field -Ofast -o oboe/CMakeFiles/oboe.dir/src/flowgraph/ManyToMultiConverter.cpp.o -c /Users/sv/android_projects/MIF/JEFF/rnnoise-hearing-example/oboe/src/flowgraph/ManyToMultiConverter.cpp",
  "file": "/Users/sv/android_projects/MIF/JEFF/rnnoise-hearing-example/oboe/src/flowgraph/ManyToMultiConverter.cpp"
},
{
  "directory": "/Users/sv/android_projects/MIF/JEFF/rnnoise-hearing-example/app/.cxx/RelWithDebInfo/4f20nz1l/armeabi-v7a",
  "command": "/Users/sv/Library/Android/sdk/ndk/25.1.8937393/toolchains/llvm/prebuilt/darwin-x86_64/bin/clang++ --target=armv7-none-linux-androideabi23 --sysroot=/Users/sv/Library/Android/sdk/ndk/25.1.8937393/toolchains/llvm/prebuilt/darwin-x86_64/sysroot -DEXPORT=\"\" -DFIXED_POINT -DUSE_ALLOCA -DUSE_KISS_FFT -I/Users/sv/android_projects/MIF/JEFF/rnnoise-hearing-example/oboe/src -I/Users/sv/android_projects/MIF/JEFF/rnnoise-hearing-example/oboe/include -g -DANDROID -fdata-sections -ffunction-sections -funwind-tables -fstack-protector-strong -no-canonical-prefixes -D_FORTIFY_SOURCE=2 -march=armv7-a -mthumb -Wformat -Werror=format-security   -O2 -g -DNDEBUG -fPIC   -UHAVE_CONFIG_H -std=c++14 -Wall -Wextra-semi -Wshadow -Wshadow-field -Ofast -o oboe/CMakeFiles/oboe.dir/src/flowgraph/MonoToMultiConverter.cpp.o -c /Users/sv/android_projects/MIF/JEFF/rnnoise-hearing-example/oboe/src/flowgraph/MonoToMultiConverter.cpp",
  "file": "/Users/sv/android_projects/MIF/JEFF/rnnoise-hearing-example/oboe/src/flowgraph/MonoToMultiConverter.cpp"
},
{
  "directory": "/Users/sv/android_projects/MIF/JEFF/rnnoise-hearing-example/app/.cxx/RelWithDebInfo/4f20nz1l/armeabi-v7a",
  "command": "/Users/sv/Library/Android/sdk/ndk/25.1.8937393/toolchains/llvm/prebuilt/darwin-x86_64/bin/clang++ --target=armv7-none-linux-androideabi23 --sysroot=/Users/sv/Library/Android/sdk/ndk/25.1.8937393/toolchains/llvm/prebuilt/darwin-x86_64/sysroot -DEXPORT=\"\" -DFIXED_POINT -DUSE_ALLOCA -DUSE_KISS_FFT -I/Users/sv/android_projects/MIF/JEFF/rnnoise-hearing-example/oboe/src -I/Users/sv/android_projects/MIF/JEFF/rnnoise-hearing-example/oboe/include -g -DANDROID -fdata-sections -ffunction-sections -funwind-tables -fstack-protector-strong -no-canonical-prefixes -D_FORTIFY_SOURCE=2 -march=armv7-a -mthumb -Wformat -Werror=format-security   -O2 -g -DNDEBUG -fPIC   -UHAVE_CONFIG_H -std=c++14 -Wall -Wextra-semi -Wshadow -Wshadow-field -Ofast -o oboe/CMakeFiles/oboe.dir/src/flowgraph/MultiToMonoConverter.cpp.o -c /Users/sv/android_projects/MIF/JEFF/rnnoise-hearing-example/oboe/src/flowgraph/MultiToMonoConverter.cpp",
  "file": "/Users/sv/android_projects/MIF/JEFF/rnnoise-hearing-example/oboe/src/flowgraph/MultiToMonoConverter.cpp"
},
{
  "directory": "/Users/sv/android_projects/MIF/JEFF/rnnoise-hearing-example/app/.cxx/RelWithDebInfo/4f20nz1l/armeabi-v7a",
  "command": "/Users/sv/Library/Android/sdk/ndk/25.1.8937393/toolchains/llvm/prebuilt/darwin-x86_64/bin/clang++ --target=armv7-none-linux-androideabi23 --sysroot=/Users/sv/Library/Android/sdk/ndk/25.1.8937393/toolchains/llvm/prebuilt/darwin-x86_64/sysroot -DEXPORT=\"\" -DFIXED_POINT -DUSE_ALLOCA -DUSE_KISS_FFT -I/Users/sv/android_projects/MIF/JEFF/rnnoise-hearing-example/oboe/src -I/Users/sv/android_projects/MIF/JEFF/rnnoise-hearing-example/oboe/include -g -DANDROID -fdata-sections -ffunction-sections -funwind-tables -fstack-protector-strong -no-canonical-prefixes -D_FORTIFY_SOURCE=2 -march=armv7-a -mthumb -Wformat -Werror=format-security   -O2 -g -DNDEBUG -fPIC   -UHAVE_CONFIG_H -std=c++14 -Wall -Wextra-semi -Wshadow -Wshadow-field -Ofast -o oboe/CMakeFiles/oboe.dir/src/flowgraph/RampLinear.cpp.o -c /Users/sv/android_projects/MIF/JEFF/rnnoise-hearing-example/oboe/src/flowgraph/RampLinear.cpp",
  "file": "/Users/sv/android_projects/MIF/JEFF/rnnoise-hearing-example/oboe/src/flowgraph/RampLinear.cpp"
},
{
  "directory": "/Users/sv/android_projects/MIF/JEFF/rnnoise-hearing-example/app/.cxx/RelWithDebInfo/4f20nz1l/armeabi-v7a",
  "command": "/Users/sv/Library/Android/sdk/ndk/25.1.8937393/toolchains/llvm/prebuilt/darwin-x86_64/bin/clang++ --target=armv7-none-linux-androideabi23 --sysroot=/Users/sv/Library/Android/sdk/ndk/25.1.8937393/toolchains/llvm/prebuilt/darwin-x86_64/sysroot -DEXPORT=\"\" -DFIXED_POINT -DUSE_ALLOCA -DUSE_KISS_FFT -I/Users/sv/android_projects/MIF/JEFF/rnnoise-hearing-example/oboe/src -I/Users/sv/android_projects/MIF/JEFF/rnnoise-hearing-example/oboe/include -g -DANDROID -fdata-sections -ffunction-sections -funwind-tables -fstack-protector-strong -no-canonical-prefixes -D_FORTIFY_SOURCE=2 -march=armv7-a -mthumb -Wformat -Werror=format-security   -O2 -g -DNDEBUG -fPIC   -UHAVE_CONFIG_H -std=c++14 -Wall -Wextra-semi -Wshadow -Wshadow-field -Ofast -o oboe/CMakeFiles/oboe.dir/src/flowgraph/SampleRateConverter.cpp.o -c /Users/sv/android_projects/MIF/JEFF/rnnoise-hearing-example/oboe/src/flowgraph/SampleRateConverter.cpp",
  "file": "/Users/sv/android_projects/MIF/JEFF/rnnoise-hearing-example/oboe/src/flowgraph/SampleRateConverter.cpp"
},
{
  "directory": "/Users/sv/android_projects/MIF/JEFF/rnnoise-hearing-example/app/.cxx/RelWithDebInfo/4f20nz1l/armeabi-v7a",
  "command": "/Users/sv/Library/Android/sdk/ndk/25.1.8937393/toolchains/llvm/prebuilt/darwin-x86_64/bin/clang++ --target=armv7-none-linux-androideabi23 --sysroot=/Users/sv/Library/Android/sdk/ndk/25.1.8937393/toolchains/llvm/prebuilt/darwin-x86_64/sysroot -DEXPORT=\"\" -DFIXED_POINT -DUSE_ALLOCA -DUSE_KISS_FFT -I/Users/sv/android_projects/MIF/JEFF/rnnoise-hearing-example/oboe/src -I/Users/sv/android_projects/MIF/JEFF/rnnoise-hearing-example/oboe/include -g -DANDROID -fdata-sections -ffunction-sections -funwind-tables -fstack-protector-strong -no-canonical-prefixes -D_FORTIFY_SOURCE=2 -march=armv7-a -mthumb -Wformat -Werror=format-security   -O2 -g -DNDEBUG -fPIC   -UHAVE_CONFIG_H -std=c++14 -Wall -Wextra-semi -Wshadow -Wshadow-field -Ofast -o oboe/CMakeFiles/oboe.dir/src/flowgraph/SinkFloat.cpp.o -c /Users/sv/android_projects/MIF/JEFF/rnnoise-hearing-example/oboe/src/flowgraph/SinkFloat.cpp",
  "file": "/Users/sv/android_projects/MIF/JEFF/rnnoise-hearing-example/oboe/src/flowgraph/SinkFloat.cpp"
},
{
  "directory": "/Users/sv/android_projects/MIF/JEFF/rnnoise-hearing-example/app/.cxx/RelWithDebInfo/4f20nz1l/armeabi-v7a",
  "command": "/Users/sv/Library/Android/sdk/ndk/25.1.8937393/toolchains/llvm/prebuilt/darwin-x86_64/bin/clang++ --target=armv7-none-linux-androideabi23 --sysroot=/Users/sv/Library/Android/sdk/ndk/25.1.8937393/toolchains/llvm/prebuilt/darwin-x86_64/sysroot -DEXPORT=\"\" -DFIXED_POINT -DUSE_ALLOCA -DUSE_KISS_FFT -I/Users/sv/android_projects/MIF/JEFF/rnnoise-hearing-example/oboe/src -I/Users/sv/android_projects/MIF/JEFF/rnnoise-hearing-example/oboe/include -g -DANDROID -fdata-sections -ffunction-sections -funwind-tables -fstack-protector-strong -no-canonical-prefixes -D_FORTIFY_SOURCE=2 -march=armv7-a -mthumb -Wformat -Werror=format-security   -O2 -g -DNDEBUG -fPIC   -UHAVE_CONFIG_H -std=c++14 -Wall -Wextra-semi -Wshadow -Wshadow-field -Ofast -o oboe/CMakeFiles/oboe.dir/src/flowgraph/SinkI16.cpp.o -c /Users/sv/android_projects/MIF/JEFF/rnnoise-hearing-example/oboe/src/flowgraph/SinkI16.cpp",
  "file": "/Users/sv/android_projects/MIF/JEFF/rnnoise-hearing-example/oboe/src/flowgraph/SinkI16.cpp"
},
{
  "directory": "/Users/sv/android_projects/MIF/JEFF/rnnoise-hearing-example/app/.cxx/RelWithDebInfo/4f20nz1l/armeabi-v7a",
  "command": "/Users/sv/Library/Android/sdk/ndk/25.1.8937393/toolchains/llvm/prebuilt/darwin-x86_64/bin/clang++ --target=armv7-none-linux-androideabi23 --sysroot=/Users/sv/Library/Android/sdk/ndk/25.1.8937393/toolchains/llvm/prebuilt/darwin-x86_64/sysroot -DEXPORT=\"\" -DFIXED_POINT -DUSE_ALLOCA -DUSE_KISS_FFT -I/Users/sv/android_projects/MIF/JEFF/rnnoise-hearing-example/oboe/src -I/Users/sv/android_projects/MIF/JEFF/rnnoise-hearing-example/oboe/include -g -DANDROID -fdata-sections -ffunction-sections -funwind-tables -fstack-protector-strong -no-canonical-prefixes -D_FORTIFY_SOURCE=2 -march=armv7-a -mthumb -Wformat -Werror=format-security   -O2 -g -DNDEBUG -fPIC   -UHAVE_CONFIG_H -std=c++14 -Wall -Wextra-semi -Wshadow -Wshadow-field -Ofast -o oboe/CMakeFiles/oboe.dir/src/flowgraph/SinkI24.cpp.o -c /Users/sv/android_projects/MIF/JEFF/rnnoise-hearing-example/oboe/src/flowgraph/SinkI24.cpp",
  "file": "/Users/sv/android_projects/MIF/JEFF/rnnoise-hearing-example/oboe/src/flowgraph/SinkI24.cpp"
},
{
  "directory": "/Users/sv/android_projects/MIF/JEFF/rnnoise-hearing-example/app/.cxx/RelWithDebInfo/4f20nz1l/armeabi-v7a",
  "command": "/Users/sv/Library/Android/sdk/ndk/25.1.8937393/toolchains/llvm/prebuilt/darwin-x86_64/bin/clang++ --target=armv7-none-linux-androideabi23 --sysroot=/Users/sv/Library/Android/sdk/ndk/25.1.8937393/toolchains/llvm/prebuilt/darwin-x86_64/sysroot -DEXPORT=\"\" -DFIXED_POINT -DUSE_ALLOCA -DUSE_KISS_FFT -I/Users/sv/android_projects/MIF/JEFF/rnnoise-hearing-example/oboe/src -I/Users/sv/android_projects/MIF/JEFF/rnnoise-hearing-example/oboe/include -g -DANDROID -fdata-sections -ffunction-sections -funwind-tables -fstack-protector-strong -no-canonical-prefixes -D_FORTIFY_SOURCE=2 -march=armv7-a -mthumb -Wformat -Werror=format-security   -O2 -g -DNDEBUG -fPIC   -UHAVE_CONFIG_H -std=c++14 -Wall -Wextra-semi -Wshadow -Wshadow-field -Ofast -o oboe/CMakeFiles/oboe.dir/src/flowgraph/SourceFloat.cpp.o -c /Users/sv/android_projects/MIF/JEFF/rnnoise-hearing-example/oboe/src/flowgraph/SourceFloat.cpp",
  "file": "/Users/sv/android_projects/MIF/JEFF/rnnoise-hearing-example/oboe/src/flowgraph/SourceFloat.cpp"
},
{
  "directory": "/Users/sv/android_projects/MIF/JEFF/rnnoise-hearing-example/app/.cxx/RelWithDebInfo/4f20nz1l/armeabi-v7a",
  "command": "/Users/sv/Library/Android/sdk/ndk/25.1.8937393/toolchains/llvm/prebuilt/darwin-x86_64/bin/clang++ --target=armv7-none-linux-androideabi23 --sysroot=/Users/sv/Library/Android/sdk/ndk/25.1.8937393/toolchains/llvm/prebuilt/darwin-x86_64/sysroot -DEXPORT=\"\" -DFIXED_POINT -DUSE_ALLOCA -DUSE_KISS_FFT -I/Users/sv/android_projects/MIF/JEFF/rnnoise-hearing-example/oboe/src -I/Users/sv/android_projects/MIF/JEFF/rnnoise-hearing-example/oboe/include -g -DANDROID -fdata-sections -ffunction-sections -funwind-tables -fstack-protector-strong -no-canonical-prefixes -D_FORTIFY_SOURCE=2 -march=armv7-a -mthumb -Wformat -Werror=format-security   -O2 -g -DNDEBUG -fPIC   -UHAVE_CONFIG_H -std=c++14 -Wall -Wextra-semi -Wshadow -Wshadow-field -Ofast -o oboe/CMakeFiles/oboe.dir/src/flowgraph/SourceI16.cpp.o -c /Users/sv/android_projects/MIF/JEFF/rnnoise-hearing-example/oboe/src/flowgraph/SourceI16.cpp",
  "file": "/Users/sv/android_projects/MIF/JEFF/rnnoise-hearing-example/oboe/src/flowgraph/SourceI16.cpp"
},
{
  "directory": "/Users/sv/android_projects/MIF/JEFF/rnnoise-hearing-example/app/.cxx/RelWithDebInfo/4f20nz1l/armeabi-v7a",
  "command": "/Users/sv/Library/Android/sdk/ndk/25.1.8937393/toolchains/llvm/prebuilt/darwin-x86_64/bin/clang++ --target=armv7-none-linux-androideabi23 --sysroot=/Users/sv/Library/Android/sdk/ndk/25.1.8937393/toolchains/llvm/prebuilt/darwin-x86_64/sysroot -DEXPORT=\"\" -DFIXED_POINT -DUSE_ALLOCA -DUSE_KISS_FFT -I/Users/sv/android_projects/MIF/JEFF/rnnoise-hearing-example/oboe/src -I/Users/sv/android_projects/MIF/JEFF/rnnoise-hearing-example/oboe/include -g -DANDROID -fdata-sections -ffunction-sections -funwind-tables -fstack-protector-strong -no-canonical-prefixes -D_FORTIFY_SOURCE=2 -march=armv7-a -mthumb -Wformat -Werror=format-security   -O2 -g -DNDEBUG -fPIC   -UHAVE_CONFIG_H -std=c++14 -Wall -Wextra-semi -Wshadow -Wshadow-field -Ofast -o oboe/CMakeFiles/oboe.dir/src/flowgraph/SourceI24.cpp.o -c /Users/sv/android_projects/MIF/JEFF/rnnoise-hearing-example/oboe/src/flowgraph/SourceI24.cpp",
  "file": "/Users/sv/android_projects/MIF/JEFF/rnnoise-hearing-example/oboe/src/flowgraph/SourceI24.cpp"
},
{
  "directory": "/Users/sv/android_projects/MIF/JEFF/rnnoise-hearing-example/app/.cxx/RelWithDebInfo/4f20nz1l/armeabi-v7a",
  "command": "/Users/sv/Library/Android/sdk/ndk/25.1.8937393/toolchains/llvm/prebuilt/darwin-x86_64/bin/clang++ --target=armv7-none-linux-androideabi23 --sysroot=/Users/sv/Library/Android/sdk/ndk/25.1.8937393/toolchains/llvm/prebuilt/darwin-x86_64/sysroot -DEXPORT=\"\" -DFIXED_POINT -DUSE_ALLOCA -DUSE_KISS_FFT -I/Users/sv/android_projects/MIF/JEFF/rnnoise-hearing-example/oboe/src -I/Users/sv/android_projects/MIF/JEFF/rnnoise-hearing-example/oboe/include -g -DANDROID -fdata-sections -ffunction-sections -funwind-tables -fstack-protector-strong -no-canonical-prefixes -D_FORTIFY_SOURCE=2 -march=armv7-a -mthumb -Wformat -Werror=format-security   -O2 -g -DNDEBUG -fPIC   -UHAVE_CONFIG_H -std=c++14 -Wall -Wextra-semi -Wshadow -Wshadow-field -Ofast -o oboe/CMakeFiles/oboe.dir/src/flowgraph/resampler/IntegerRatio.cpp.o -c /Users/sv/android_projects/MIF/JEFF/rnnoise-hearing-example/oboe/src/flowgraph/resampler/IntegerRatio.cpp",
  "file": "/Users/sv/android_projects/MIF/JEFF/rnnoise-hearing-example/oboe/src/flowgraph/resampler/IntegerRatio.cpp"
},
{
  "directory": "/Users/sv/android_projects/MIF/JEFF/rnnoise-hearing-example/app/.cxx/RelWithDebInfo/4f20nz1l/armeabi-v7a",
  "command": "/Users/sv/Library/Android/sdk/ndk/25.1.8937393/toolchains/llvm/prebuilt/darwin-x86_64/bin/clang++ --target=armv7-none-linux-androideabi23 --sysroot=/Users/sv/Library/Android/sdk/ndk/25.1.8937393/toolchains/llvm/prebuilt/darwin-x86_64/sysroot -DEXPORT=\"\" -DFIXED_POINT -DUSE_ALLOCA -DUSE_KISS_FFT -I/Users/sv/android_projects/MIF/JEFF/rnnoise-hearing-example/oboe/src -I/Users/sv/android_projects/MIF/JEFF/rnnoise-hearing-example/oboe/include -g -DANDROID -fdata-sections -ffunction-sections -funwind-tables -fstack-protector-strong -no-canonical-prefixes -D_FORTIFY_SOURCE=2 -march=armv7-a -mthumb -Wformat -Werror=format-security   -O2 -g -DNDEBUG -fPIC   -UHAVE_CONFIG_H -std=c++14 -Wall -Wextra-semi -Wshadow -Wshadow-field -Ofast -o oboe/CMakeFiles/oboe.dir/src/flowgraph/resampler/LinearResampler.cpp.o -c /Users/sv/android_projects/MIF/JEFF/rnnoise-hearing-example/oboe/src/flowgraph/resampler/LinearResampler.cpp",
  "file": "/Users/sv/android_projects/MIF/JEFF/rnnoise-hearing-example/oboe/src/flowgraph/resampler/LinearResampler.cpp"
},
{
  "directory": "/Users/sv/android_projects/MIF/JEFF/rnnoise-hearing-example/app/.cxx/RelWithDebInfo/4f20nz1l/armeabi-v7a",
  "command": "/Users/sv/Library/Android/sdk/ndk/25.1.8937393/toolchains/llvm/prebuilt/darwin-x86_64/bin/clang++ --target=armv7-none-linux-androideabi23 --sysroot=/Users/sv/Library/Android/sdk/ndk/25.1.8937393/toolchains/llvm/prebuilt/darwin-x86_64/sysroot -DEXPORT=\"\" -DFIXED_POINT -DUSE_ALLOCA -DUSE_KISS_FFT -I/Users/sv/android_projects/MIF/JEFF/rnnoise-hearing-example/oboe/src -I/Users/sv/android_projects/MIF/JEFF/rnnoise-hearing-example/oboe/include -g -DANDROID -fdata-sections -ffunction-sections -funwind-tables -fstack-protector-strong -no-canonical-prefixes -D_FORTIFY_SOURCE=2 -march=armv7-a -mthumb -Wformat -Werror=format-security   -O2 -g -DNDEBUG -fPIC   -UHAVE_CONFIG_H -std=c++14 -Wall -Wextra-semi -Wshadow -Wshadow-field -Ofast -o oboe/CMakeFiles/oboe.dir/src/flowgraph/resampler/MultiChannelResampler.cpp.o -c /Users/sv/android_projects/MIF/JEFF/rnnoise-hearing-example/oboe/src/flowgraph/resampler/MultiChannelResampler.cpp",
  "file": "/Users/sv/android_projects/MIF/JEFF/rnnoise-hearing-example/oboe/src/flowgraph/resampler/MultiChannelResampler.cpp"
},
{
  "directory": "/Users/sv/android_projects/MIF/JEFF/rnnoise-hearing-example/app/.cxx/RelWithDebInfo/4f20nz1l/armeabi-v7a",
  "command": "/Users/sv/Library/Android/sdk/ndk/25.1.8937393/toolchains/llvm/prebuilt/darwin-x86_64/bin/clang++ --target=armv7-none-linux-androideabi23 --sysroot=/Users/sv/Library/Android/sdk/ndk/25.1.8937393/toolchains/llvm/prebuilt/darwin-x86_64/sysroot -DEXPORT=\"\" -DFIXED_POINT -DUSE_ALLOCA -DUSE_KISS_FFT -I/Users/sv/android_projects/MIF/JEFF/rnnoise-hearing-example/oboe/src -I/Users/sv/android_projects/MIF/JEFF/rnnoise-hearing-example/oboe/include -g -DANDROID -fdata-sections -ffunction-sections -funwind-tables -fstack-protector-strong -no-canonical-prefixes -D_FORTIFY_SOURCE=2 -march=armv7-a -mthumb -Wformat -Werror=format-security   -O2 -g -DNDEBUG -fPIC   -UHAVE_CONFIG_H -std=c++14 -Wall -Wextra-semi -Wshadow -Wshadow-field -Ofast -o oboe/CMakeFiles/oboe.dir/src/flowgraph/resampler/PolyphaseResampler.cpp.o -c /Users/sv/android_projects/MIF/JEFF/rnnoise-hearing-example/oboe/src/flowgraph/resampler/PolyphaseResampler.cpp",
  "file": "/Users/sv/android_projects/MIF/JEFF/rnnoise-hearing-example/oboe/src/flowgraph/resampler/PolyphaseResampler.cpp"
},
{
  "directory": "/Users/sv/android_projects/MIF/JEFF/rnnoise-hearing-example/app/.cxx/RelWithDebInfo/4f20nz1l/armeabi-v7a",
  "command": "/Users/sv/Library/Android/sdk/ndk/25.1.8937393/toolchains/llvm/prebuilt/darwin-x86_64/bin/clang++ --target=armv7-none-linux-androideabi23 --sysroot=/Users/sv/Library/Android/sdk/ndk/25.1.8937393/toolchains/llvm/prebuilt/darwin-x86_64/sysroot -DEXPORT=\"\" -DFIXED_POINT -DUSE_ALLOCA -DUSE_KISS_FFT -I/Users/sv/android_projects/MIF/JEFF/rnnoise-hearing-example/oboe/src -I/Users/sv/android_projects/MIF/JEFF/rnnoise-hearing-example/oboe/include -g -DANDROID -fdata-sections -ffunction-sections -funwind-tables -fstack-protector-strong -no-canonical-prefixes -D_FORTIFY_SOURCE=2 -march=armv7-a -mthumb -Wformat -Werror=format-security   -O2 -g -DNDEBUG -fPIC   -UHAVE_CONFIG_H -std=c++14 -Wall -Wextra-semi -Wshadow -Wshadow-field -Ofast -o oboe/CMakeFiles/oboe.dir/src/flowgraph/resampler/PolyphaseResamplerMono.cpp.o -c /Users/sv/android_projects/MIF/JEFF/rnnoise-hearing-example/oboe/src/flowgraph/resampler/PolyphaseResamplerMono.cpp",
  "file": "/Users/sv/android_projects/MIF/JEFF/rnnoise-hearing-example/oboe/src/flowgraph/resampler/PolyphaseResamplerMono.cpp"
},
{
  "directory": "/Users/sv/android_projects/MIF/JEFF/rnnoise-hearing-example/app/.cxx/RelWithDebInfo/4f20nz1l/armeabi-v7a",
  "command": "/Users/sv/Library/Android/sdk/ndk/25.1.8937393/toolchains/llvm/prebuilt/darwin-x86_64/bin/clang++ --target=armv7-none-linux-androideabi23 --sysroot=/Users/sv/Library/Android/sdk/ndk/25.1.8937393/toolchains/llvm/prebuilt/darwin-x86_64/sysroot -DEXPORT=\"\" -DFIXED_POINT -DUSE_ALLOCA -DUSE_KISS_FFT -I/Users/sv/android_projects/MIF/JEFF/rnnoise-hearing-example/oboe/src -I/Users/sv/android_projects/MIF/JEFF/rnnoise-hearing-example/oboe/include -g -DANDROID -fdata-sections -ffunction-sections -funwind-tables -fstack-protector-strong -no-canonical-prefixes -D_FORTIFY_SOURCE=2 -march=armv7-a -mthumb -Wformat -Werror=format-security   -O2 -g -DNDEBUG -fPIC   -UHAVE_CONFIG_H -std=c++14 -Wall -Wextra-semi -Wshadow -Wshadow-field -Ofast -o oboe/CMakeFiles/oboe.dir/src/flowgraph/resampler/PolyphaseResamplerStereo.cpp.o -c /Users/sv/android_projects/MIF/JEFF/rnnoise-hearing-example/oboe/src/flowgraph/resampler/PolyphaseResamplerStereo.cpp",
  "file": "/Users/sv/android_projects/MIF/JEFF/rnnoise-hearing-example/oboe/src/flowgraph/resampler/PolyphaseResamplerStereo.cpp"
},
{
  "directory": "/Users/sv/android_projects/MIF/JEFF/rnnoise-hearing-example/app/.cxx/RelWithDebInfo/4f20nz1l/armeabi-v7a",
  "command": "/Users/sv/Library/Android/sdk/ndk/25.1.8937393/toolchains/llvm/prebuilt/darwin-x86_64/bin/clang++ --target=armv7-none-linux-androideabi23 --sysroot=/Users/sv/Library/Android/sdk/ndk/25.1.8937393/toolchains/llvm/prebuilt/darwin-x86_64/sysroot -DEXPORT=\"\" -DFIXED_POINT -DUSE_ALLOCA -DUSE_KISS_FFT -I/Users/sv/android_projects/MIF/JEFF/rnnoise-hearing-example/oboe/src -I/Users/sv/android_projects/MIF/JEFF/rnnoise-hearing-example/oboe/include -g -DANDROID -fdata-sections -ffunction-sections -funwind-tables -fstack-protector-strong -no-canonical-prefixes -D_FORTIFY_SOURCE=2 -march=armv7-a -mthumb -Wformat -Werror=format-security   -O2 -g -DNDEBUG -fPIC   -UHAVE_CONFIG_H -std=c++14 -Wall -Wextra-semi -Wshadow -Wshadow-field -Ofast -o oboe/CMakeFiles/oboe.dir/src/flowgraph/resampler/SincResampler.cpp.o -c /Users/sv/android_projects/MIF/JEFF/rnnoise-hearing-example/oboe/src/flowgraph/resampler/SincResampler.cpp",
  "file": "/Users/sv/android_projects/MIF/JEFF/rnnoise-hearing-example/oboe/src/flowgraph/resampler/SincResampler.cpp"
},
{
  "directory": "/Users/sv/android_projects/MIF/JEFF/rnnoise-hearing-example/app/.cxx/RelWithDebInfo/4f20nz1l/armeabi-v7a",
  "command": "/Users/sv/Library/Android/sdk/ndk/25.1.8937393/toolchains/llvm/prebuilt/darwin-x86_64/bin/clang++ --target=armv7-none-linux-androideabi23 --sysroot=/Users/sv/Library/Android/sdk/ndk/25.1.8937393/toolchains/llvm/prebuilt/darwin-x86_64/sysroot -DEXPORT=\"\" -DFIXED_POINT -DUSE_ALLOCA -DUSE_KISS_FFT -I/Users/sv/android_projects/MIF/JEFF/rnnoise-hearing-example/oboe/src -I/Users/sv/android_projects/MIF/JEFF/rnnoise-hearing-example/oboe/include -g -DANDROID -fdata-sections -ffunction-sections -funwind-tables -fstack-protector-strong -no-canonical-prefixes -D_FORTIFY_SOURCE=2 -march=armv7-a -mthumb -Wformat -Werror=format-security   -O2 -g -DNDEBUG -fPIC   -UHAVE_CONFIG_H -std=c++14 -Wall -Wextra-semi -Wshadow -Wshadow-field -Ofast -o oboe/CMakeFiles/oboe.dir/src/flowgraph/resampler/SincResamplerStereo.cpp.o -c /Users/sv/android_projects/MIF/JEFF/rnnoise-hearing-example/oboe/src/flowgraph/resampler/SincResamplerStereo.cpp",
  "file": "/Users/sv/android_projects/MIF/JEFF/rnnoise-hearing-example/oboe/src/flowgraph/resampler/SincResamplerStereo.cpp"
},
{
  "directory": "/Users/sv/android_projects/MIF/JEFF/rnnoise-hearing-example/app/.cxx/RelWithDebInfo/4f20nz1l/armeabi-v7a",
  "command": "/Users/sv/Library/Android/sdk/ndk/25.1.8937393/toolchains/llvm/prebuilt/darwin-x86_64/bin/clang++ --target=armv7-none-linux-androideabi23 --sysroot=/Users/sv/Library/Android/sdk/ndk/25.1.8937393/toolchains/llvm/prebuilt/darwin-x86_64/sysroot -DEXPORT=\"\" -DFIXED_POINT -DUSE_ALLOCA -DUSE_KISS_FFT -I/Users/sv/android_projects/MIF/JEFF/rnnoise-hearing-example/oboe/src -I/Users/sv/android_projects/MIF/JEFF/rnnoise-hearing-example/oboe/include -g -DANDROID -fdata-sections -ffunction-sections -funwind-tables -fstack-protector-strong -no-canonical-prefixes -D_FORTIFY_SOURCE=2 -march=armv7-a -mthumb -Wformat -Werror=format-security   -O2 -g -DNDEBUG -fPIC   -UHAVE_CONFIG_H -std=c++14 -Wall -Wextra-semi -Wshadow -Wshadow-field -Ofast -o oboe/CMakeFiles/oboe.dir/src/opensles/AudioInputStreamOpenSLES.cpp.o -c /Users/sv/android_projects/MIF/JEFF/rnnoise-hearing-example/oboe/src/opensles/AudioInputStreamOpenSLES.cpp",
  "file": "/Users/sv/android_projects/MIF/JEFF/rnnoise-hearing-example/oboe/src/opensles/AudioInputStreamOpenSLES.cpp"
},
{
  "directory": "/Users/sv/android_projects/MIF/JEFF/rnnoise-hearing-example/app/.cxx/RelWithDebInfo/4f20nz1l/armeabi-v7a",
  "command": "/Users/sv/Library/Android/sdk/ndk/25.1.8937393/toolchains/llvm/prebuilt/darwin-x86_64/bin/clang++ --target=armv7-none-linux-androideabi23 --sysroot=/Users/sv/Library/Android/sdk/ndk/25.1.8937393/toolchains/llvm/prebuilt/darwin-x86_64/sysroot -DEXPORT=\"\" -DFIXED_POINT -DUSE_ALLOCA -DUSE_KISS_FFT -I/Users/sv/android_projects/MIF/JEFF/rnnoise-hearing-example/oboe/src -I/Users/sv/android_projects/MIF/JEFF/rnnoise-hearing-example/oboe/include -g -DANDROID -fdata-sections -ffunction-sections -funwind-tables -fstack-protector-strong -no-canonical-prefixes -D_FORTIFY_SOURCE=2 -march=armv7-a -mthumb -Wformat -Werror=format-security   -O2 -g -DNDEBUG -fPIC   -UHAVE_CONFIG_H -std=c++14 -Wall -Wextra-semi -Wshadow -Wshadow-field -Ofast -o oboe/CMakeFiles/oboe.dir/src/opensles/AudioOutputStreamOpenSLES.cpp.o -c /Users/sv/android_projects/MIF/JEFF/rnnoise-hearing-example/oboe/src/opensles/AudioOutputStreamOpenSLES.cpp",
  "file": "/Users/sv/android_projects/MIF/JEFF/rnnoise-hearing-example/oboe/src/opensles/AudioOutputStreamOpenSLES.cpp"
},
{
  "directory": "/Users/sv/android_projects/MIF/JEFF/rnnoise-hearing-example/app/.cxx/RelWithDebInfo/4f20nz1l/armeabi-v7a",
  "command": "/Users/sv/Library/Android/sdk/ndk/25.1.8937393/toolchains/llvm/prebuilt/darwin-x86_64/bin/clang++ --target=armv7-none-linux-androideabi23 --sysroot=/Users/sv/Library/Android/sdk/ndk/25.1.8937393/toolchains/llvm/prebuilt/darwin-x86_64/sysroot -DEXPORT=\"\" -DFIXED_POINT -DUSE_ALLOCA -DUSE_KISS_FFT -I/Users/sv/android_projects/MIF/JEFF/rnnoise-hearing-example/oboe/src -I/Users/sv/android_projects/MIF/JEFF/rnnoise-hearing-example/oboe/include -g -DANDROID -fdata-sections -ffunction-sections -funwind-tables -fstack-protector-strong -no-canonical-prefixes -D_FORTIFY_SOURCE=2 -march=armv7-a -mthumb -Wformat -Werror=format-security   -O2 -g -DNDEBUG -fPIC   -UHAVE_CONFIG_H -std=c++14 -Wall -Wextra-semi -Wshadow -Wshadow-field -Ofast -o oboe/CMakeFiles/oboe.dir/src/opensles/AudioStreamBuffered.cpp.o -c /Users/sv/android_projects/MIF/JEFF/rnnoise-hearing-example/oboe/src/opensles/AudioStreamBuffered.cpp",
  "file": "/Users/sv/android_projects/MIF/JEFF/rnnoise-hearing-example/oboe/src/opensles/AudioStreamBuffered.cpp"
},
{
  "directory": "/Users/sv/android_projects/MIF/JEFF/rnnoise-hearing-example/app/.cxx/RelWithDebInfo/4f20nz1l/armeabi-v7a",
  "command": "/Users/sv/Library/Android/sdk/ndk/25.1.8937393/toolchains/llvm/prebuilt/darwin-x86_64/bin/clang++ --target=armv7-none-linux-androideabi23 --sysroot=/Users/sv/Library/Android/sdk/ndk/25.1.8937393/toolchains/llvm/prebuilt/darwin-x86_64/sysroot -DEXPORT=\"\" -DFIXED_POINT -DUSE_ALLOCA -DUSE_KISS_FFT -I/Users/sv/android_projects/MIF/JEFF/rnnoise-hearing-example/oboe/src -I/Users/sv/android_projects/MIF/JEFF/rnnoise-hearing-example/oboe/include -g -DANDROID -fdata-sections -ffunction-sections -funwind-tables -fstack-protector-strong -no-canonical-prefixes -D_FORTIFY_SOURCE=2 -march=armv7-a -mthumb -Wformat -Werror=format-security   -O2 -g -DNDEBUG -fPIC   -UHAVE_CONFIG_H -std=c++14 -Wall -Wextra-semi -Wshadow -Wshadow-field -Ofast -o oboe/CMakeFiles/oboe.dir/src/opensles/AudioStreamOpenSLES.cpp.o -c /Users/sv/android_projects/MIF/JEFF/rnnoise-hearing-example/oboe/src/opensles/AudioStreamOpenSLES.cpp",
  "file": "/Users/sv/android_projects/MIF/JEFF/rnnoise-hearing-example/oboe/src/opensles/AudioStreamOpenSLES.cpp"
},
{
  "directory": "/Users/sv/android_projects/MIF/JEFF/rnnoise-hearing-example/app/.cxx/RelWithDebInfo/4f20nz1l/armeabi-v7a",
  "command": "/Users/sv/Library/Android/sdk/ndk/25.1.8937393/toolchains/llvm/prebuilt/darwin-x86_64/bin/clang++ --target=armv7-none-linux-androideabi23 --sysroot=/Users/sv/Library/Android/sdk/ndk/25.1.8937393/toolchains/llvm/prebuilt/darwin-x86_64/sysroot -DEXPORT=\"\" -DFIXED_POINT -DUSE_ALLOCA -DUSE_KISS_FFT -I/Users/sv/android_projects/MIF/JEFF/rnnoise-hearing-example/oboe/src -I/Users/sv/android_projects/MIF/JEFF/rnnoise-hearing-example/oboe/include -g -DANDROID -fdata-sections -ffunction-sections -funwind-tables -fstack-protector-strong -no-canonical-prefixes -D_FORTIFY_SOURCE=2 -march=armv7-a -mthumb -Wformat -Werror=format-security   -O2 -g -DNDEBUG -fPIC   -UHAVE_CONFIG_H -std=c++14 -Wall -Wextra-semi -Wshadow -Wshadow-field -Ofast -o oboe/CMakeFiles/oboe.dir/src/opensles/EngineOpenSLES.cpp.o -c /Users/sv/android_projects/MIF/JEFF/rnnoise-hearing-example/oboe/src/opensles/EngineOpenSLES.cpp",
  "file": "/Users/sv/android_projects/MIF/JEFF/rnnoise-hearing-example/oboe/src/opensles/EngineOpenSLES.cpp"
},
{
  "directory": "/Users/sv/android_projects/MIF/JEFF/rnnoise-hearing-example/app/.cxx/RelWithDebInfo/4f20nz1l/armeabi-v7a",
  "command": "/Users/sv/Library/Android/sdk/ndk/25.1.8937393/toolchains/llvm/prebuilt/darwin-x86_64/bin/clang++ --target=armv7-none-linux-androideabi23 --sysroot=/Users/sv/Library/Android/sdk/ndk/25.1.8937393/toolchains/llvm/prebuilt/darwin-x86_64/sysroot -DEXPORT=\"\" -DFIXED_POINT -DUSE_ALLOCA -DUSE_KISS_FFT -I/Users/sv/android_projects/MIF/JEFF/rnnoise-hearing-example/oboe/src -I/Users/sv/android_projects/MIF/JEFF/rnnoise-hearing-example/oboe/include -g -DANDROID -fdata-sections -ffunction-sections -funwind-tables -fstack-protector-strong -no-canonical-prefixes -D_FORTIFY_SOURCE=2 -march=armv7-a -mthumb -Wformat -Werror=format-security   -O2 -g -DNDEBUG -fPIC   -UHAVE_CONFIG_H -std=c++14 -Wall -Wextra-semi -Wshadow -Wshadow-field -Ofast -o oboe/CMakeFiles/oboe.dir/src/opensles/OpenSLESUtilities.cpp.o -c /Users/sv/android_projects/MIF/JEFF/rnnoise-hearing-example/oboe/src/opensles/OpenSLESUtilities.cpp",
  "file": "/Users/sv/android_projects/MIF/JEFF/rnnoise-hearing-example/oboe/src/opensles/OpenSLESUtilities.cpp"
},
{
  "directory": "/Users/sv/android_projects/MIF/JEFF/rnnoise-hearing-example/app/.cxx/RelWithDebInfo/4f20nz1l/armeabi-v7a",
  "command": "/Users/sv/Library/Android/sdk/ndk/25.1.8937393/toolchains/llvm/prebuilt/darwin-x86_64/bin/clang++ --target=armv7-none-linux-androideabi23 --sysroot=/Users/sv/Library/Android/sdk/ndk/25.1.8937393/toolchains/llvm/prebuilt/darwin-x86_64/sysroot -DEXPORT=\"\" -DFIXED_POINT -DUSE_ALLOCA -DUSE_KISS_FFT -I/Users/sv/android_projects/MIF/JEFF/rnnoise-hearing-example/oboe/src -I/Users/sv/android_projects/MIF/JEFF/rnnoise-hearing-example/oboe/include -g -DANDROID -fdata-sections -ffunction-sections -funwind-tables -fstack-protector-strong -no-canonical-prefixes -D_FORTIFY_SOURCE=2 -march=armv7-a -mthumb -Wformat -Werror=format-security   -O2 -g -DNDEBUG -fPIC   -UHAVE_CONFIG_H -std=c++14 -Wall -Wextra-semi -Wshadow -Wshadow-field -Ofast -o oboe/CMakeFiles/oboe.dir/src/opensles/OutputMixerOpenSLES.cpp.o -c /Users/sv/android_projects/MIF/JEFF/rnnoise-hearing-example/oboe/src/opensles/OutputMixerOpenSLES.cpp",
  "file": "/Users/sv/android_projects/MIF/JEFF/rnnoise-hearing-example/oboe/src/opensles/OutputMixerOpenSLES.cpp"
},
{
  "directory": "/Users/sv/android_projects/MIF/JEFF/rnnoise-hearing-example/app/.cxx/RelWithDebInfo/4f20nz1l/armeabi-v7a",
  "command": "/Users/sv/Library/Android/sdk/ndk/25.1.8937393/toolchains/llvm/prebuilt/darwin-x86_64/bin/clang++ --target=armv7-none-linux-androideabi23 --sysroot=/Users/sv/Library/Android/sdk/ndk/25.1.8937393/toolchains/llvm/prebuilt/darwin-x86_64/sysroot -DEXPORT=\"\" -DFIXED_POINT -DUSE_ALLOCA -DUSE_KISS_FFT -I/Users/sv/android_projects/MIF/JEFF/rnnoise-hearing-example/oboe/src -I/Users/sv/android_projects/MIF/JEFF/rnnoise-hearing-example/oboe/include -g -DANDROID -fdata-sections -ffunction-sections -funwind-tables -fstack-protector-strong -no-canonical-prefixes -D_FORTIFY_SOURCE=2 -march=armv7-a -mthumb -Wformat -Werror=format-security   -O2 -g -DNDEBUG -fPIC   -UHAVE_CONFIG_H -std=c++14 -Wall -Wextra-semi -Wshadow -Wshadow-field -Ofast -o oboe/CMakeFiles/oboe.dir/src/common/StabilizedCallback.cpp.o -c /Users/sv/android_projects/MIF/JEFF/rnnoise-hearing-example/oboe/src/common/StabilizedCallback.cpp",
  "file": "/Users/sv/android_projects/MIF/JEFF/rnnoise-hearing-example/oboe/src/common/StabilizedCallback.cpp"
},
{
  "directory": "/Users/sv/android_projects/MIF/JEFF/rnnoise-hearing-example/app/.cxx/RelWithDebInfo/4f20nz1l/armeabi-v7a",
  "command": "/Users/sv/Library/Android/sdk/ndk/25.1.8937393/toolchains/llvm/prebuilt/darwin-x86_64/bin/clang++ --target=armv7-none-linux-androideabi23 --sysroot=/Users/sv/Library/Android/sdk/ndk/25.1.8937393/toolchains/llvm/prebuilt/darwin-x86_64/sysroot -DEXPORT=\"\" -DFIXED_POINT -DUSE_ALLOCA -DUSE_KISS_FFT -I/Users/sv/android_projects/MIF/JEFF/rnnoise-hearing-example/oboe/src -I/Users/sv/android_projects/MIF/JEFF/rnnoise-hearing-example/oboe/include -g -DANDROID -fdata-sections -ffunction-sections -funwind-tables -fstack-protector-strong -no-canonical-prefixes -D_FORTIFY_SOURCE=2 -march=armv7-a -mthumb -Wformat -Werror=format-security   -O2 -g -DNDEBUG -fPIC   -UHAVE_CONFIG_H -std=c++14 -Wall -Wextra-semi -Wshadow -Wshadow-field -Ofast -o oboe/CMakeFiles/oboe.dir/src/common/Trace.cpp.o -c /Users/sv/android_projects/MIF/JEFF/rnnoise-hearing-example/oboe/src/common/Trace.cpp",
  "file": "/Users/sv/android_projects/MIF/JEFF/rnnoise-hearing-example/oboe/src/common/Trace.cpp"
},
{
  "directory": "/Users/sv/android_projects/MIF/JEFF/rnnoise-hearing-example/app/.cxx/RelWithDebInfo/4f20nz1l/armeabi-v7a",
  "command": "/Users/sv/Library/Android/sdk/ndk/25.1.8937393/toolchains/llvm/prebuilt/darwin-x86_64/bin/clang++ --target=armv7-none-linux-androideabi23 --sysroot=/Users/sv/Library/Android/sdk/ndk/25.1.8937393/toolchains/llvm/prebuilt/darwin-x86_64/sysroot -DEXPORT=\"\" -DFIXED_POINT -DUSE_ALLOCA -DUSE_KISS_FFT -I/Users/sv/android_projects/MIF/JEFF/rnnoise-hearing-example/oboe/src -I/Users/sv/android_projects/MIF/JEFF/rnnoise-hearing-example/oboe/include -g -DANDROID -fdata-sections -ffunction-sections -funwind-tables -fstack-protector-strong -no-canonical-prefixes -D_FORTIFY_SOURCE=2 -march=armv7-a -mthumb -Wformat -Werror=format-security   -O2 -g -DNDEBUG -fPIC   -UHAVE_CONFIG_H -std=c++14 -Wall -Wextra-semi -Wshadow -Wshadow-field -Ofast -o oboe/CMakeFiles/oboe.dir/src/common/Version.cpp.o -c /Users/sv/android_projects/MIF/JEFF/rnnoise-hearing-example/oboe/src/common/Version.cpp",
  "file": "/Users/sv/android_projects/MIF/JEFF/rnnoise-hearing-example/oboe/src/common/Version.cpp"
}
]