{
	"configurations" : 
	[
		{
			"directories" : 
			[
				{
					"build" : ".",
					"jsonFile" : "directory-.-RelWithDebInfo-f5ebdc15457944623624.json",
					"minimumCMakeVersion" : 
					{
						"string" : "3.6.0"
					},
					"projectIndex" : 0,
					"source" : ".",
					"targetIndexes" : 
					[
						0
					]
				}
			],
			"name" : "RelWithDebInfo",
			"projects" : 
			[
				{
					"directoryIndexes" : 
					[
						0
					],
					"name" : "rnnoisewrapper",
					"targetIndexes" : 
					[
						0
					]
				}
			],
			"targets" : 
			[
				{
					"directoryIndex" : 0,
					"id" : "rnnoisewrapper::@6890427a1f51a3e7e1df",
					"jsonFile" : "target-rnnoisewrapper-RelWithDebInfo-e63c7a365c66b77e8821.json",
					"name" : "rnnoisewrapper",
					"projectIndex" : 0
				}
			]
		}
	],
	"kind" : "codemodel",
	"paths" : 
	{
		"build" : "/Users/sv/android_projects/MIF/JEFF/rnnoise-hearing-example/rnnoisewrapper/.cxx/RelWithDebInfo/195k5b1h/x86",
		"source" : "/Users/sv/android_projects/MIF/JEFF/rnnoise-hearing-example/rnnoisewrapper/src/main/cpp"
	},
	"version" : 
	{
		"major" : 2,
		"minor" : 3
	}
}
