{
  "buildFiles": [
    "/Users/sv/android_projects/MIF/JEFF/rnnoise-hearing-example/app/src/main/cpp/CMakeLists.txt",
    "/Users/sv/android_projects/MIF/JEFF/rnnoise-hearing-example/oboe/CMakeLists.txt"
  ],
  "cleanCommandsComponents": [
    [
      "/Users/sv/Library/Android/sdk/cmake/3.22.1/bin/ninja",
      "-C",
      "/Users/sv/android_projects/MIF/JEFF/rnnoise-hearing-example/app/.cxx/RelWithDebInfo/4f20nz1l/x86",
      "clean"
    ]
  ],
  "buildTargetsCommandComponents": [
    "/Users/sv/Library/Android/sdk/cmake/3.22.1/bin/ninja",
    "-C",
    "/Users/sv/android_projects/MIF/JEFF/rnnoise-hearing-example/app/.cxx/RelWithDebInfo/4f20nz1l/x86",
    "{LIST_OF_TARGETS_TO_BUILD}"
  ],
  "libraries": {
    "audio-engine::@6890427a1f51a3e7e1df": {
      "toolchain": "toolchain",
      "abi": "x86",
      "artifactName": "audio-engine",
      "output": "/Users/sv/android_projects/MIF/JEFF/rnnoise-hearing-example/app/build/intermediates/cxx/RelWithDebInfo/4f20nz1l/obj/x86/libaudio-engine.so",
      "runtimeFiles": []
    },
    "oboe::@0db0cf03f2959f768628": {
      "toolchain": "toolchain",
      "abi": "x86",
      "artifactName": "oboe",
      "output": "/Users/sv/android_projects/MIF/JEFF/rnnoise-hearing-example/app/.cxx/RelWithDebInfo/4f20nz1l/x86/oboe/liboboe.a"
    }
  },
  "toolchains": {
    "toolchain": {
      "cCompilerExecutable": "/Users/sv/Library/Android/sdk/ndk/25.1.8937393/toolchains/llvm/prebuilt/darwin-x86_64/bin/clang.lld",
      "cppCompilerExecutable": "/Users/sv/Library/Android/sdk/ndk/25.1.8937393/toolchains/llvm/prebuilt/darwin-x86_64/bin/clang++.lld"
    }
  },
  "cFileExtensions": [
    "c"
  ],
  "cppFileExtensions": [
    "cpp"
  ]
}